agent_id,name_cht,client_id,name_eng,email,birthday,title_text,country_text,sexual_text,identify,passport,,addr1_phone,cellnum,addr1_post5,addr1_cht,addr_eng,fin_company_cht,fin_addr_cht,addr2_cht
Aaron,云天飛,1,"Yun, Tian-Fei",228876948@qq.com,1976/4/17,,中國,男,220202197604173639,G55826889,,057186959116,15968-163-413,,杭州市江干區觀瀾時代國際花園雲邸5幢1單元3201室,,,,
Aaron,王姝蕾,2,"Wang, Shu-Lei",27820298@qq.com,1985/7/24,,香港,女,M247096(4),G37558203,,,8613564-635-626,,"Rm.602,Build.9,No.2580 Jinxiu Rd.,Pudong Dist.,Shanghai",,,,
Aaron,王竑勝,3,"Wang, Hong- Sheng",,1979/1/23,,台灣,男,V120769974,214713362,,(08) 986-2180,0913-310-623,957,台東縣海端鄉廣原村6鄰錦屏22-1號,,,,
Aaron,王連銀渾,4,"Wang Lien,Yin-Hun",tonywang512@gmail.com,1949/12/13,,台灣,女,N200155746,210275560,,(02) 2937-0726,0922-747-203,116,台北市文山區秀明路2段5號12樓,"12F., No.5, Sec. 2, Xiuming Rd., Wenshan Dist., Taipei City 11652, Taiwan",,,
Aaron,王琳,5,"Wang, Lin",linmay09222@yahoo.com.tw,1981/8/1,,台灣,女,S222901139,214099723,,(07) 702-6278,0922-255-609,802,高雄市苓雅區民族二路2號7樓之1,,,,
Aaron,王絢臻,6,"Wang, Hsuan-Chen",michelle@strengthmaster.com.tw,1967/9/18,,台灣,女,B220207803,300399832,,(04) 2360-7988,0911-969-996,407,台中市西屯區市政路55號21樓之1,,,,
Aaron,王糴緗,7,"Wang, Di-Xiang",hanbury.ceo@gmail.com,1985/2/8,,台灣,女,B222043370,305313921,,(02) 2758-2239,0982-090-033,110,台北市信義區基隆路一段400號5樓,"5F., No.400, Sec.1, Keelung Rd., Xinyi Dist., Taipei City 11051",,,台北市士林區蘭興里14鄰克強路10巷19弄16號5樓
Aaron,任家輝,8,"Jen,Chia-Hui",ayumi7371@hotmail.com,1984/7/1,,台灣,男,O100072546,300386266,,(03) 538-7685,0932-116-561,300,新竹市香山區中華路４段246巷8號,,,,
Aaron,朱慧勤,9,Zhu HuiQin,13801666586@163.com,1992/7/18,,中國,女,,G43649341,,8613801666586,864009-210-066,,"Rm.802, Build.5, Lane500, Guoxiao Rd., yangpu District, Shanghai",,,,
Aaron,何媛惠,10,"Ho, Yuan-Hui",d_l_rinpoch@hotmail.com,1958/5/19,,台灣,女,E202275342,,,(07) 224-4579,0928-738-189,802,"高雄市苓雅區光華一路148之99號11F,高雄市苓雅區廣州一街141之6號4樓","9F.-1, No.148-96, Guanghua 1st Rd., Lingya Dist., Kaohsiung City 802",,,高雄市苓雅區光華一路148之96號9樓之1
Aaron,吳正基,11,"Wu, Cheng-Chi",a321042001@yahoo.com.tw,1971/4/19,,台灣,男,X120196793,216325270,,049-2337166,,542,南投縣草屯鎮新富路161巷5號,"No.5, LN.161, Xinfu Rd., Caotun Township, Nantou County 542, Taiwan",,,
Aaron,吳秀玉,12,"Wu, Hsiu-Yu",,1958/11/30,,台灣,女,Q222197106,303734200,,,,420,台中市豐原區田心里26鄰圓環東路126巷33弄6號,,,,
Aaron,吳曉春,13,"Wu, Xiao-Chun",xiaochun_wu95@hotmail.com,1973/2/11,,中國,男,330106197302114014,G23966921,,8613606640807,8618668-071-658,,中國杭州市下城區文暉路文暉苑8-3-501室,,,,
Aaron,吳櫂筵,14,"Wu, Chao-Yen",tp27621638@gmail.com,1968/8/8,老師,台灣,男,A124781629,306607778,,,,110,台北市信義區興雅里19鄰忠孝東路五段71巷3弄11號4樓,"4F., No.11, Aly. 3, Ln. 71, Sec. 5, Zhongxiao E. Rd., Xinyi Dist., Taipei City 110",,,
Aaron,呂炫鋒,15,"Lu, Hsuan-Feng",bio3366188@yahoo.com.tw,1963/3/28,,台灣,男,H120042002,306133175,,,0925-011-899,330,桃園市中埔六街82號8樓,,,,
Aaron,李陽裕,16,"Li, Yang-Yu",host5677@yahoo.com.tw,1978/6/7,,台灣,男,G121263611,,,(02) 2651-6156,0922-828-230,220,新北市板橋區文化路一段270巷75號2樓,,,,
Aaron,宗宇騏,17,"Tsung, Yu-Chi",tsungyuchi@gmail.com,1976/8/10,,台灣,男,B121420095,300491690,,(04) 2327-1915,0983-073-166,231,新北市新店區民權路127巷2號4樓之2,,,,
Aaron,林姿利,18,"Lin, Chih-Li",kellylin0301@yahoo.com.tw,1976/3/1,,台灣,女,E220616216,300636153,,(07) 611-2021,0921-531-625,825,高雄市橋頭區橋南里橋南路新社巷23號,"No.23, Xinshe Ln., Qiaonan Rd., Qiaotou Dist., Kaohsiung City 825",,,
Aaron,林韋芍,19,"Lin, Wei-Shao",rose@shinelong.com.tw,1968/4/19,,台灣,女,N220000297,133201296,,,0933-434-543,105,台北市松山區新東街6巷19號三樓,"3F., No.19, Ln. 6, Xindong St., Songshan Dist., Taipei City 105, Taiwan (R.O.C.)",,,台北市松山區新東里10鄰新東街6巷19號3樓
Aaron,林高名,20,"Lin, Kao- Ming",goman180@yahoo.com.tw,1981/10/24,,台灣,男,R122862054,216590255,,(06) 293-3526,0919-112-619,709,台南市安南區安西路83巷37號,"No.37, Ln. 83, Anxi Rd., Annan Dist., Tainan City 709, Taiwan (R.O.C.)",,,708台南市安平區永華六街22巷5號4樓之10
Aaron,林淑敏,21,"Lin, Su-Min",clark@longhai.com.tw,1962/4/9,,台灣,女,B220806128,301603110,,,0930-036-358,403,台中市西區台灣大道二段229號15F-2,"15F.-2, No.229, Sec. 2, Taiwan Blvd., West Dist., Taichung City 403, Taiwan (R.O.C.)",,,
Aaron,林瑋奕,22,"Lin, Wei-I",,,,台灣,男,,,,,,242,新北市新莊區公園一路6號,,,,
Aaron,林麗珠,23,"Lin, Li-Chu",jammie0218@msn.com,1957/2/18,,台灣,女,B220305902,,,,0939-338-333,403,台中市西區民權路225巷11號6樓之1,,,,
Aaron,邱俊穎,24,"Chiu, Chun-Ying",kbaiko@gmail.com,1984/4/10,,台灣,男,B121831463,,,(04) 2531-4760,0919-092-410,427,台中市潭子區和平路35號,,,,
Aaron,邱瑞蘋,25,"Chiu, Jui-Ping",hanzhu.candy@msa.hinet.net,1979/3/30,,台灣,女,J221674592,311033856,,,0937-137-920,302,新竹縣竹北市勝利六街77號,,,新竹縣竹北市勝利六街77號,305新竹縣新埔鎮義民路三段717巷18號
Aaron,洪志鋒,26,"Hung,Chih-Feng",crazyman1019@gmail.com,1982/10/19,,台灣,男,F125616662,300133035,,,0958-082-900,244,新北市林口區文化一路２段337號,,,,
Aaron,洪崇源,27,"Hong, Chung-Yuan",henry731025@yahoo.com.tw,1984/10/24,,台灣,男,,,,(02) 2675-8880,0911-877-797,238,新北市樹林區啟智街36號7樓,,,,
Aaron,洪燕萍,28,"Hung, Yen-Ping",yuan573@yahoo.com.tw,1974/1/1,,台灣,女,B220569004,309502310,,,0931-603-865,408,台中市南屯區大富街207之2號,,,,
Aaron,胡秉,29,"Hu, Bing",touchstone74@hotmail.com,1974/11/26,,中國,男,,G27104204,,(+86)18521539898,(+86)13816132506,,"Rm.3001, No.23, Aly. 388, Furongjiang Rd., Changning Dist., Shanghai City",,,,
Aaron,孫明春,30,"Sun, Ming-Chun",1174785704@qq.com,1968/3/30,,中國,女,330104196803300440,G40727352,,,,,,,,,
Aaron,徐日新,31,"Hsu, Jin-Hsin",,1959/7/24,,台灣,男,K121237990,303369680,,(04)2258-9196,0937-201-678,407,台中市西屯區市政北三路137號21樓之2,,,,
Aaron,袁啟訓,32,"Yuan, Chi- Hsun",yuan573@yahoo.com.tw,1969/2/9,,台灣,男,L120009787,132552965,,,0931-603-865,408,台中市南屯區大富街207之2號,"No.207-2, Dafu St., Nantun Dist., Taichung City 408, Taiwan (R.O.C.)",,,
Aaron,袁啟森,33,"Yuan, Chi-Sen",yuansama@yahoo.com.tw,1966/11/12,董事長,台灣,男,L120009769,302243751,,(02) 2761-2856,0935-937-172,105,台北市松山區新東街6巷19號三樓,,,,台北市松山區新東里10鄰新東街6巷19號3樓
Aaron,袁璟樂,34,"Yuan, Jing-Le",happyjoan168@yahoo.com.tw,1961/10/21,,台灣,男,L120208039,303720273,,(04) 3503-9199,0933-903-077,403,台中市西區五權路22巷26號,,,,
Aaron,馬文興,35,"Ma, Wen-Hsing","joseph.ma@hanburyifa.com,mawenhsing@gmail.com",1963/6/13,先生,台灣,男,A120886678,310647897,,,0935-958-581,116,台北市文山區久康街24巷12號12樓,,,,
Aaron,高照晶,36,"Kao, Chao-Ching",joanna.kao@hotmail.com.tw,1972/6/11,,台灣,女,E220597056,302265231,,(07) 588-5616,0920-070-889,813,高雄市左營區城峰路48號5樓,,,,
Aaron,張若珊,37,"Chang, Jo-Shan",,1956/8/6,,台灣,女,P221473393,301896623,,,,605,嘉義縣阿里山鄉南阿里山34號,,,,
Aaron,張原,38,"Zhang, Yuan","ericzhang_gg@hotmail.com,Wayofeva@gmail.com",1981/11/3,,中國,男,440301198111038011,,,,8618675-517-998,,中國廣東省深圳市福田區潤田路28號港中旅花園27棟9C,,,,
Aaron,張凱惠,39,"Chang, Kai-Hui",b9204148@stmail.cgu.edu.tw,1984/10/17,,台灣,女,L222971546,213944575,,,0910-209-309,420,台中市豐原區社興二街19號,,,,
Aaron,張詩淳,40,"Chang,Shih-Chun",anpoqoo@gmail.com,1983/12/11,,台灣,女,B222195182,214925669,,(02) 2432-5354,0939-949-731,204,基隆市安樂區基金二路1巷166號2樓,,,,
Aaron,張瑢糴,41,"Chang, Jung-Di",jennychang@makoto.com.tw,1967/8/5,董事長,台灣,女,M220112933,300734785,,(02) 2937-9937,0919-331-873,104,台北市中山區松江路152號6樓,,誠翔運通旅行社,台北市中山區松江路152號6樓,台北市南港區重陽路470號5樓之1(住家)
Aaron,曹汝萍,42,"Cao,Ru-Ping",13801666586@163.com,1968/2/18,,中國,女,520102196802182422,E10868505,,,(+86)13801666586,,上海市普陀區凱旋北路1555弄51號603室,,,,
Aaron,莊隆霖,43,"Chuang, Lung-Lin",aaronchuang6755@gmail.com,1970/11/4,先生,台灣,男,A121466938,309481466,,(02) 2285-1103,0935-575-677,111,台北市士林區承德路四段10巷92號2樓,,,,
Aaron,莫喀嘎,44,"Mo, Ke-Ka",d_l_rinpoch@hotmail.com,1953/1/1,,台灣,男,E125965123,,,(07) 224-4579,0982-624-557,802,高雄市苓雅區光華一路148之99號11F,,,,
Aaron,許淑華,45,"Hsu, Shu-Hua",selina2656@hotmail.com,1973/9/12,,台灣,女,M222216532,305991320,,049-2337166,0928-382-576,542,南投縣草屯鎮新富路161巷5號,"No.5, LN.161, Xinfu Rd., Caotun Township, Nantou County 542, Taiwan",,,
Aaron,許糴_,46,"Hsu, Di-Shiuan",happyjoan168@yahoo.com.tw,1967/1/2,,台灣,女,L220021454,303720274,,,0933-906-995,400,台中市中區繼光里19鄰成功路128巷16號之2,,,, 台中市西區五權路22巷26號
Aaron,郭彥甫,47,"Kuo, Yen-Fu",jt88520041@yahoo.com.tw,1984/7/26,,台灣,男,B121829669,,,(04)2244-9016,0920-979-927,406,台中市北屯區東山路一段33巷2號,,,,
Aaron,郭晉禾,48,"Kuo, Chin-Ho",wallacekuo@yahoo.com.tw,1975/11/20,,台灣,男,S122417998,211010700,,(07) 611-2021,0922-660-888,825,高雄市橋頭區橋南里橋南路新社巷23號,"No.23, Xinshe Ln., Qiaonan Rd., Qiaotou Dist., Kaohsiung City 825",,,
Aaron,郭海峰,49,Guo HaiFeng,frankghf@163.com,1976/6/4,,中國,男,31010719760604461x,G32076758,,(+86)02158769265,(+86)13641704090,,上海市長寧區甘溪路100弄17號101室,,,,
Aaron,陳文泰,50,"Chen,Wen-Tai",w10029@hotmail.com,1956/2/4,,台灣,男,W100059808,216566869,,082-329-148,0912-140-922,893,金門縣金城鎮賢庵里16鄰古區1號,,,,
Aaron,陳泳頤,51,"Chen, Yong-Yi",,1968/11/8,,台灣,女,B220909508,,,(04)2258-9196,0975-828-391,407,台中市西屯區市政北三路137號21樓之2,,,,
Aaron,陳淑雯,52,"Chen,Shu-Wen",chen.dolphin@gmail.com,1973/11/29,,台灣,女,W200348928,210216654,,(02) 2700-9818,0955-227-758,106,台北市大安區延吉街241巷2弄5號6樓,,,,
Aaron,陳渼瑄,53,"Chen,Mei-Hsuan",ur2007ur2007@hotmail.com,1974/1/25,,中國,女,N222038146,,,0930-030-099,0980-333-931,893,金門縣金城鎮珠浦西路22號,,,,
Aaron,陳漢璿,54,"Chen, Han-Hsun",hanbury.ceo@gmail.com,1983/10/2,董事長,台灣,男,L123156952,301376900,,(02) 2758-2239,0982-090-033,110,台北市信義區基隆路一段400號5樓,"5F., No.400, Sec.1, Keelung Rd., Xinyi Dist., Taipei City 11051",,,台北市士林區蘭興里14鄰克強路10巷19弄16號5樓
Aaron,陸芷彥,55,"Lu, Zhi-Yan",460716096@qq.com,1976/10/2,,中國,,330501197610024045,E10433726,,,18329-165-888,,浙江省湖州市吳興區鳳凰街道凌陽路1825號,,,,
Aaron,曾仁芬,56,"Tseng, Jen-Fen",jenfen0413@yahoo.com.tw,1971/4/13,,台灣,女,T220495933,215982456,,(04) 2320-5970,0910-510-166,403,台中市西區東興路３段184號,,,,
Aaron,曾仁義,57,"Tseng, Jen-Yi",zin555ee@gmail.com,1982/4/20,,台灣,男,R123325345,,,(06) 253-2677,0980-961-982,710,台南市永康區三民街136巷11號,,,,
Aaron,湯福明,58,"Tang, Fu-Ming","creopatara@163.com,creopatara@hotmail.com",1950/4/4,,中國,男,,G26145566,,(+86)2158769265,(+86)13003145036,,"Rm.1504, No.29, Ln.99, Puming Rd., Pudong Dist., Shanghai City",,,,
Aaron,湯藝穎,59,"Tang, Michelle","creopatara@163.com,creopatara@hotmail.com",1980/1/31,,澳洲,女,,E4115931,,(+61)390405000,(+61)421592196,,"Unit14, 68-72 Woniora Rd., Hurstville, New Australia",,,,
Aaron,黃致愷,60,"Huang, Chih-Kai",dr.jeff.rich@gmail.com,1981/4/28,,台灣,男,B121597037,213855606,,(03)5914-314,0988-955-888,300,新竹縣新竹市科大一路175號8樓之1,,,,台中市北屯區安順東七街133號
Aaron,黃韋中,61,"Huang, Wei-Chung",csie.chung@gmail.com,1988/5/3,,台灣,男,B122214582,301654345,,(04) 2244-9438,0928-918-489,231,新北市新店區民權路127巷5號3樓,,,,
Aaron,黃韋強,62,"Huang, Wei-Chiang",chianger@gmail.com,1983/2/5,,台灣,男,B121928096,,,(04) 2244-9438,0928-898-182,231,新北市新店區民權路127巷5號3樓,,,,
Aaron,黃裕霖,63,"Huang, Yu-Lin",nomisz3315@gmail.com,1983/7/5,,台灣,男,B121812100,,,,0938-692-290,402,台中市南區國光路389巷2號2F,,,,
Aaron,黃綵霓,64,"Huang, Tsai-Ni",amy2012888@qq.com,1976/12/27,,台灣,女,L222106496,309692064,,(04) 2462-1880,0935-188-760,407,台中市西屯區福祥街18巷19號,,,,
Aaron,楊玉敦,65,"Yang, Yu-Tun",yudunyang@gmail.com,1955/1/10,,台灣,女,N203651183,,,(04)2244-9438,0936-606-933,406,台中市北屯區安順東七街133號,"No.133, Anshun E. 7th St., Beitun Dist., Taichung City 406, Taiwan (R.O.C.)",,,
Aaron,楊欣蕙,66,"Yang, Hsin-Hui",liu-yang-lulu@yahoo.com.tw,1966/6/20,,台灣,女,L220069230,301217518,,,0952-998-095,429,台中市神岡區社南村3鄰民族路54號,,,,
Aaron,溫瑋廷,67,"Wen, Wei-Ting",rita3353@yahoo.com.tw,1988/8/3,,台灣,女,B222568112,214190289,,(04) 2312-5455,0916-647-996,407,台中市西屯區成都路180號,,,,
Aaron,葉佳千,68,"Yeh, Chia-Chian",alexyehh@hotmail.com,1976/9/8,,台灣,男,N123071214,,,(04) 2653-1900,0923-360-908,404,台中市北區大誠街135號,,,,
Aaron,詹巧玲,69,"Chan, Chiao-Ling",ciaoling168@gmail.com,1950/4/11,,台灣,女,J201130937,214139917,,(03) 587-5103,0933-296-618,306,新竹縣關西鄉正義路32號,,,,
Aaron,劉以文,70,"Liu, I-Wen",marieliu@ms48.hinet.net,1956/5/27,,台灣,男,T120140799,307289675,,(04) 2213-2055,0931-525-797,407,台中市西屯區市政北五路8號21樓之1,"21F.-1, No.8, Shizheng N. 5th Rd., Xitun Dist., Taichung City 407, Taiwan (R.O.C.)",,,
Aaron,蔡佳蓉,71,"Tsai, Chia-Jung",bio3366188@yahoo.com.tw,1973/5/17,,台灣,女,A222383252,301667727,,,0925-011-893,330,桃園市中埔六街82號8樓,,,,
Aaron,蔡美娜,72,"Tsai, Mei-Na",aa55mei@gmail.com,1966/6/15,,台灣,女,E221382175,303115306,,(07) 767-0258,0905-181-360,830,高雄市鳳山區八德路二段162號15樓,,,,
Aaron,蔡堉臻,73,"Tsai, Yu-Chen",tp27621638@gmail.com,1968/7/10,,台灣,女,A222203946,211771271,,(02) 2723-7235,0968-054-909,110,台北市信義區忠孝東路5段137號7樓,"4F., No.11, Aly. 3, Ln. 71, Sec. 5, Zhongxiao E. Rd., Xinyi Dist., Taipei City 110",,,
Aaron,蔣如豪,74,"Chiang, Ju",,,,中國,男,,,,,,,,,,,
Aaron,鄧寀嬥,75,"Teng, Cai-Di",hua111561@yahoo.com.tw,1972/11/15,,台灣,女,S220643125,300662061,,(07) 371-1834,0917-238-888,814,高雄市仁武區烏林村23鄰仁林路267巷10之3號,,,,
Aaron,鄭涵文,76,"Zheng, Han-Wen",,1974/2/26,,中國,女,,E41694623,,(+86)4009210066,,,"Rm.3001, No.23, Aly. 388, Furongjiang Rd., Changning Dist., Shanghai City",,,,
Aaron,賴朝傑,77,"Lai, Chao-Chieh",agribiz.alan@yahoo.com.tw,1972/5/14,,台灣,男,T121476565,215119977,,(08) 771-3090,0938-172-168,911,屏東縣竹田鄉豐明路16號,"No.10-6, Zhongzheng Rd., Zhutian Vil., Zhutian Township, Pingtung County 91144, Taiwan",,,
Aaron,謝朝福,78,"Hsieh, Chao-Fu",st.star@msa.hinet.net,1960/5/16,,台灣,男,Y120080586,305144737,,(02) 2857-6065,0981-242-667,241,新北市三重區集賢路77號6樓,,,,
Aaron,魏玉文,79,"Wei,Yu-Wen",118520@mail.tku.edu.tw,1964/11/19,,台灣,女,P220352199,300377411,,(02) 2894-4986,0910-683-598,112,台北市北投區中和街496號3樓,,,,
Aaron,蘇惠娟,80,"Su, Hui-Chuan",shc@scsb.com.tw,1968/10/23,,台灣,女,N220004035,200799157,,,0928-263-668,105,台北市松山區東榮里30鄰光復北路189之1號12樓,"12F., No.189-1, Guangfu N. Rd., Songshan Dist., Taipei City 105, Taiwan (R.O.C.)",,,
Ivan,吳月嫈,81,"Wu, Yueh-Ying",winnie.yy.wu@cyntec.com,1965/3/20,,台灣,女,K220560125,,,(03) 579-9829,0922-735-211,300,新竹市東區科學園區研發二路2號,"No.2, R&D 2nd Rd., East Dist., Hsinchu City 30076, Taiwan",乾坤科技,新竹市東區科學園區研發二路2號,
Ivan,李廣韻,82,"Lee, Kuang-Yun",kuang061@gmail.com,1975/6/18,,台灣,女,A220778057,212075303,,(02) 2704-5112,0930-696-752,106,台北市大安區建國南路一段291巷22號6樓,"6F., No.22, Ln.291, Sec.1, Jianguo S Rd., Da-An Dist., Taipei City 106, Taiwan",,,
Ivan,林和燕,83,"Lin, Ho- Yen",linhoyen@yahoo.com.tw,1972/3/18,,台灣,女,P220804803,200964815,,(02) 2769-7660,0922-437-211,105,台北市松山區撫遠街211巷13號4樓,,,,
Ivan,邱浩楷,84,"Chiu, Hao-Kai",s923316@yahoo.com.tw,1980/12/19,,台灣,男,L122900509,306228956,,,0912-153-079,235,新北市中和區新生街114巷37弄10號5樓,,,,104台北市中山區新庄里5鄰新生北路三段43號九樓之25
Ivan,施威任,85,,petershih@mail.mirdc.org.tw,,,台灣,男,,,,,0911-734-735,81160,高雄市楠梓區高楠公路1001號 ,,金屬工業研究發展中心,高雄市楠梓區高楠公路1001號 ,
Ivan,徐建業,86,"Hsu,Chien-Yeh","cyhsu@tmu.edu.tw,cyhsu@tmu.edu.tw",1963/3/10,,台灣,男,M120101090,133070098,,(02) 2231-6130,0939-193-212,234,新北市永和區中正路527號6樓之2,"6F.-2, No.527, Zhongzheng Rd., Yonghe Dist., New Taipei City 234, Taiwan (R.O.C.)",,,
Ivan,莊謙泰,87,"Chuang, Chien-Tai",garychuang0909@yahoo.com.tw,1947/9/9,,台灣,男,B100251652,301387636,,(02) 2925-3432,0918-622-888,106,台北市大安區仁愛路三段127號10樓,,,台北市大安區仁愛路三段127號10樓,新北市永和區環河西路2段209巷7號9F-3
Ivan,許淑芬,88,"Hsu, Shu-Fen",Alice05888@gmail.com,1972/5/11,,台灣,女,M220065957,,,049-2312547,0911-817-588,540,南投縣南投市內興里南營路184巷5號,,,,
Ivan,陳秀霞,89,"Chen,Hsiu-Hsia",moretech@so-net.net.tw,1958/12/8,,台灣,女,A220159730,305441860,,(02) 2723-7235,0987-248-987,110,台北市信義區莊敬路391巷3弄13號,"No.13, Aly. 3, Ln. 391, Zhuangjing Rd., Xinyi Dist., Taipei City 110, Taiwan (R.O.C.)",,,台北市信義區莊敬路391巷3弄13號
Ivan,陳虹君,90,"Chen, Hong-Jun",vivian700522@seed.net.tw,1981/5/22,,台灣,女,D221832660,300531271,,(06) 287-4051,0938-580-038,,台北市內湖區新湖一路128巷15號3樓 ,"No.30, Ln. 646, Anxing St., Annan Dist., Tainan City 70963, Taiwan",柏麗家具,台北市內湖區新湖一路128巷15號3樓,台南市安南區安興街646巷30號
Ivan,傅定弘,91,"Fu, Ding-Hung",snake0513@hotmail.com,1985/5/13,,台灣,男,A125777665,303182048,,,0930-519-329,235,新北市中和區泰和街30巷28之4號,,,,
Ivan,游美華,92,"Yu, Mei-Hua",chung3269@163.com,1959/5/21,,台灣,女,F222515080,306981346,,,0986-861-326,242,新北市新莊區自重街17號,"No.17, Zichong St., Xinzhuang Dist., New Taipei City 242, Taiwan (R.O.C.)",,,
Ivan,葉美珍,93,"Yeh, Mei-Chen",,1976/6/30,,台灣,女,J220030569,216218051,,,0988-038-508,300,新竹市東區高峰路30巷1弄12號,"No.12, Aly. 1, Ln. 30, Gaofeng Rd., East Dist., Hsinchu City 300, Taiwan (R.O.C.)",,,
Ivan,鄭偉仕,94,"Cheng, Wei-Shih",jones0713@hotmail.com,1983/7/13,,台灣,男,R123382215,214852598,,(06) 722-7214,0919-178-366,700,台南市中西區府前路一段181號10樓之B,,,,
Ivan,謝廷進,95,"Hsieh, Ting-Chin",yalin168@hotmail.com,1973/7/26,,台灣,男,J120768735,213559761,,(03) 587-5103,0912-038-318,306,新竹縣關西鎮中山路197號,"No.197, Zhongshan Rd., Guanxi Township, Hsinchu County 30641, Taiwan",,,
Nomis,林金韻,96,"Lin, Chin-Yun",goldenfinger513@gmail.com,1983/5/13,閣下,台灣,,,309339440,,,0911-335-150,406,台中市北屯區漢口路五段196號,,,,
Nomis,陳漢璿,97,"Chen, Han-Hsun",hanbury.ceo@gmail.com,1983/10/2,董事長,台灣,男,L123156952,301376900,,(02) 2758-2239,0982-090-033,110,台北市信義區基隆路一段400號5樓,"5F., No.400, Sec.1, Keelung Rd., Xinyi Dist., Taipei City 11051",,,
Nomis,黃怡珊,98,"Huang, I-Shan",pennyhuang9501104@yahoo.com.tw,1990/10/24,閣下,台灣,,,307286063,,,0978-561-086,408,台中市南屯區寶山三街3號10樓之3,,,,
Nomis,黃裕霖,99,"Huang, Yu-Lin",nomisz3315@gmail.com,1983/7/5,,台灣,男,B121812100,,,(04)2245-0138,0938-692-290,402,台中市南區國光路389巷2號2F,,,,
Paco,李佳蕙,100,,,,管理部,,女,,,,03-3699411#11,,334,桃園縣八德市高城七街24號,"No24, Gaocheng 7th St., Bade City, Taoyuan County 334, Taiwan",綠茵電機有限公司,,
Paco,范成益,101,,,,,,男,,,,02-2577-4691,0931-865-166,105,"台北市松山區光復北路68號8F,上海市嘉定區徐行鎮徐潘路89號",,"又寧有限公司,優寶有限公司","1720 Newport Circle Santa Ana, CA 92705",
Paco,范成韻,102,,,,董事長特助,,女,,,,,,,"台北市內湖路一段392號3F,上海市嘉定區徐行鎮徐潘路99號",,"又寧有限公司,優寶有限公司,橡寶有限公司",,
Paco,鍾弘彥,103,,,,總經理,,男,,,,,,,"台北市內湖路一段392號3F,上海市嘉定區徐行鎮徐潘路99號",,上海優寶橡塑製品有限公司,,
Paul,方子健,104,"FANG,TZU-CHIEN",s903347@hotmail.com,1979/8/27,,台灣,男,S124140641,,,,0937-715-597,833,高雄市鳥松區中山路140巷5號,,,,高雄市鳥松區中山路140巷5號
Paul,王安依,105,"WANG,AN-YI",ivy11082222@yahoo.com.tw,1980/11/8,,台灣,女,A225148899,214988893,,,0953-168-768,811,高雄市楠梓區清豐里24鄰清平街58-9巷1號,,,,
Paul,江岳樺,106,"CHIANG, YUEH-HUA",samchiang12@gmail.com,1980/10/12,,台灣,男,A120946133,310379226,,,,106,台北市大安區仁愛里17鄰仁愛路4段37-45號,,,,
Paul,宋友齡,107,"SUNG, YU-LING",Sally@trufflenoodles.com,1981/11/18,,台灣,女,A223923161,303887506,,,0975-811-180,106,台北市大安區仁愛里17鄰仁愛路4段37-45號,,,,
Paul,宋佳欣,108,"SONG,CHIA-HSING",jchsong@andlife.com.tw,1974/11/16,,台灣,女,A228606834,,,,0922-381-183,112,台北市北投區永和里3鄰同德街23巷1號7樓,,,,
Paul,李明憲,109,"LEE, MING-HSIEN",Steven_Lee@keeyang-engineering.com,1968/5/15,,台灣,男,E120343172,212359916,,,0935-525-511,105,台北市松山區民生東路三段113巷39號5樓之1,,,,台北市松山區民生東路三段113巷39號5樓之1
Paul,李威樺,110,"LEE,WEI-HUA",lewee7835@hotmail.com,1989/3/5,,台灣,男,E124051924,308514601,,,0932-725-739,806,高雄市前鎮區鎮東五街133號,,,,
Paul,李彥明,111,"LEE,YEN-MING",sheilachu30732@gmail.com,1965/11/11,,台灣,男,E120343163,308645115,,(02)2718-4898,0917-781-701,106,台北市大安區和平東路三段36號6樓之2,,,,
Paul,李柏融,112,"LI,PO-RUNG",paul.li@hanburyifa.com,1983/6/28,,台灣,男,E123395374,302724808,,,0956-729-931,802,高雄市苓雅區英義街208巷3號,,,,
Paul,李香瑩,113,"LEE,HSIANG-YING",ying0525@gmail.com,1981/5/25,,台灣,女,E222982820,210867667,,,0929-360-865,802,高雄市苓雅區林榮里18鄰英義街208巷3號,,,,
Paul,李瑜真,114,"LEE,YU-CHEN",naomi4100@yahoo.com.tw,1986/2/12,,台灣,女,E223594100,216150220,,,0929-251-029,820,高雄市岡山區中山南路85號,,,,
Paul,李鳳花,115,"LEE,FENG-HUA",lewee7835@hotmail.com,1963/10/19,,台灣,女,E220362688,302445177,,,0932-725-739,806,高雄市前鎮區鎮東五街133號,,,,
Paul,汪清森,116,"WANG, QING-SEN",esenwang99@hotmail.com,1986/4/30,,中國,男,350502198604301557,G36169503,,,,,福建省泉州市豐澤區通港西街228號寶珊花園浪琴苑鏡湖北路9號,,,,
Paul,林志憶,117,"LIN, CHIH-YI",Mountain915@gmail.com,1983/8/18,,台灣,男,S123584176,305210749,,,0988-870-155,831,高雄市大寮區中庄里16鄰立德路665巷20弄7號,,,,
Paul,林尚毅,118,"LIN,SHANG-YI",linpeanut@gmail.com ,1992/9/24,,台灣,男,Q124040448,307579909,,,0987-509-035,807,高雄市三民區中仁街25巷4號,,,,
Paul,林郁修,119,"LIN, YU-HSIU",asiulin@gmail.com,1972/7/20,,台灣,男,L120217083,130661027,,(04) 2529-1516,0939-309-693,420,台中市豐原區東勢街57號,,,,
Paul,林憶青,120,"LIN,YI-CHING",chingching1106@yahoo.com.tw,1981/11/6,,台灣,女,A225246836,200782499,,,0933-764-066,112,台北市北投區泉源路22號7樓,"7F, NO.22, QUANYUAN RD., BEITOU DIST.,TAIPEI CITY 11247 TAIWAN (R.O.C)",,,
Paul,林瓊姿,121,"LIN,CHIUNG-ZUE",a0919101316@gmail.com,1955/4/24,,台灣,女,E200216194,300270898,,,0953-958-176,801,高雄市前金區長生街6號7樓,"7F., No.6, Changsheng St., Qianjin Dist., Kaohsiung City 801, Taiwan (R.O.C.)",,,
Paul,邱玟萍,122,"CHIU,WEN-PING",wenpingchiu1980@gmail.com,1980/12/27,,台灣,女,S222268095,303676260,,,0955-822-878,700,台南市中西區藥王里16鄰民權路三段400巷32號2樓,,,,
Paul,邱崇恩,123,"CHIU,CHONG-EN",ferarri360922@yahoo.com.tw ,1984/9/22,,台灣,男,A127187052,302595644,,,0931-853-385,807,高雄市三民區十全里9鄰中華二路256號8樓,,,,
Paul,侯忠穎,124,"HOU, CHUNG-YING",monkeyian@msn.com,1983/2/2,,台灣,男,F125804377,303957381,,(02)8926-6047,0935-091-271,100,台北市中正區三元街240-2號12樓,,,,
Paul,翁芷瑩,125,"WENG,CHIH-YING",conjectural@hotmail.com,1984/9/24,,台灣,女,X220409779,201083983,,,0937-084-871,115,台北市南港區福德街309巷29號2樓,,,,台北市南港區福德街309巷29號2樓
Paul,張加明,126,"CHANG,CHIA-MING",dacumin@yahoo.com.tw,1976/4/14,,台灣,男,R121122579,306203938,,,0918-901-934,722,台南市佳里鎮子龍里9鄰子良廟40號之31,,,,台南市佳里鎮子龍里9鄰子良廟40號之31
Paul,張菊英,127,"CHANG,CHU-YING",cynthia6010@hotmail.com,1973/9/27,,台灣,女,R222526644,308846854,,(06)511-0123,0989-732-580,704,台南市北區成德里37鄰北成路401號4樓之2,,,,
Paul,張瑋宸,128,"CHANG,WEI-CHEN",papamouse0724@yahoo.com.tw,1980/7/24,,台灣,男,R123036049,310967173,,,0975-922-823,722,台南市佳里鎮子龍里9鄰子良廟40號之31,,,,台南市佳里鎮子龍里9鄰子良廟40號之31
Paul,張簡敬軒,129,"CHANG CHIEN,CHING-HSUAN",alexminic72@gmai.com,1983/1/4,,台灣,男,E123480403,,,,0937-558-937,802,高雄市苓雅區英義街384-3號,,,,高雄市小港區店鎮里17鄰店陽街61號
Paul,梁家倫,130,"LIANG, CHIA LUN",twogallons@gmail.com,1986/2/23,,台灣,男,T123598653,301508586,,,0988-223-634,900,屏東縣屏東市溝美里17鄰大連路80號之6,,,,
Paul,許瑞杉,131,"SHEU,RUEY-SHAN",lyp1227@ms13.hinet.net,1962/2/25,,台灣,男,M120255413,310706638,,(02)2721-1228,0932-127-976,106,台北市大安區民炤里20鄰建國南路一段270巷18號,,,,
Paul,陳怡方,132,"CHEN, YI-FANG",Mountain915@gmail.com,1986/8/26,,台灣,女,E223769385,305408677,,,0919-635-072,831,高雄市大寮區中庄里16鄰立德路665巷20弄7號,,,,高雄市大寮區中庄里16鄰立德路665巷20弄7號
Paul,陳勇先,133,"CHEN, YUNG-HSIEH",k1231233@hotmail.com,1983/11/24,,台灣,男,E123251144,215986043,,,0919-518-499,802,高雄市苓雅區日中里1鄰四維三路103號7樓,,,,
Paul,陳韋中,134,"CHEN,WEI-CHUNG",smallcarter@gmail.com,1983/1/23,,台灣,男,E123488605,216570586,,,0973-338-426,802,高雄市苓雅區林中里20鄰廣州一街115巷4號,,,,
Paul,楊玉慈,135,"YANG, YU-TZE",lewee7835@hotmail.com,1989/4/24,,台灣,女,E224221660,216005976,,,0932-725-739,806,高雄市前鎮區鎮東五街133號,"No.133, Zhendong 5th St., Qianzhen Dist., Kaohsiung City 806, Taiwan",,,高雄市前鎮區鎮東五街133號
Paul,廖靖偉,136,"LIAO,CHING-WEI",cwliao@tw.ibm.com,1987/5/21,,台灣,女,A226992604,216294125,,,0963-029-539,116,台北市文山區興隆路三段112巷4弄30號3樓,,,,台北市文山區興隆路三段112巷4弄30號3樓
Paul,熊滿芳,137,"HSIUNG,MAN-FANG",jerry.sheu@msa.hinet.net,1961/8/21,,台灣,女,F223609509,303697120,,(02)2721-1228,,106,台北市大安區民炤里20鄰建國南路一段270巷18號,,,,
Paul,劉佳霖,138,"LIU, CHIA-LIN",,1991/12/29,,台灣,女,E223376764,214200862,,,,801,高雄市前金區長生街6號7樓,"7F., No.6, Changsheng St., Qianjin Dist., Kaohsiung City 801, Taiwan (R.O.C.)",,,
Paul,歐尚俊,139,"OU,SHANG-CHUN",naomi4100@yahoo.com.tw,1983/8/13,,台灣,女,S123392418,305392515,,,0929-251-029,820,高雄市岡山區中山南路85號,,,,
Paul,蔡明篤,140,"TSAI,MING-TU",midu86@yahoo.com.tw,1982/10/17,,台灣,男,S123425583,306418190,,,0982-381-368,811,高雄市楠梓區慶昌里26鄰慶昌街11巷19-3號,,,,高雄市楠梓區慶昌里26鄰慶昌街11巷19-3號
Paul,蔡耀德,141,"TSAI,YAO-TE",getta2@gmail.com,1985/5/15,,台灣,男,E123671511,300331441,,,0912-796-077,106,台北市大安區建倫里11鄰仁愛路四段151巷28號9樓,,,,
Paul,盧嘉楠,142,"LU, JIA-NAN",,1987/5/21,,中國,女,350206198705212026,G24185362,,,,,福建省泉州市豐澤區通港西街228號寶珊花園浪琴苑鏡湖北路9號,,,,
Paul,賴力豪,143,"LAI,LI-HAO",lary1106@gmail.com,1981/11/6,,台灣,男,E123258349,301824102,,,0925-356-888,802,高雄市苓雅區五權里15鄰武廟路233號,,,,高雄市苓雅區五權里15鄰武廟路233號
Paul,韓耀庭,144,"HAN,YAO-TING",people8036810@hotmail.com,1985/6/19,,台灣,男,E123576619,300140371,,,0963-271-916,812,高雄市小港區店鎮里17鄰店陽街61號,,,,高雄市大寮區中庄里16鄰立德路665巷20弄7號
Paul,蘇敬斌,145,"SU,JING-BIN",soul_246@yahoo.com.tw,1984/11/11,,台灣,男,D121870739,,,,0921-278-630,700,台南市中西區武聖路151巷10弄24號,,,,