oid,Agent,agent_id,x,x,x,x,client_id,x,x,x,x,x,x,x,x,x,x,product4_id,account_num,fpi_num,x,x,x,,,,
1,Nomis,5,林金韻,"Lin, Chin-Yun",,goldenfinger513@gmail.com,96,投資,1,投資型保單,Variable Account,1,本金履約保本型,PRINCIPAL PROTECTION,1,史坦普500指數保本型計畫,S&P 500 Index,1,T15W005569,,ITA,ITA,1,,,,,,,,,,,,,,,,,,,,,
2,Nomis,5,黃怡珊,"Huang, I-Shan",,pennyhuang9501104@yahoo.com.tw,98,投資,1,投資型保單,Variable Account,1,本金履約保本型,PRINCIPAL PROTECTION,1,史坦普500指數保本型計畫,S&P 500 Index,1,T15W005557,,ITA,ITA,1,,,,,,,,,,,,,,,,,,,,,
3,Nomis,5,黃裕霖,"Huang, Yu-Lin",先生,nomisz3315@gmail.com,63,投資,1,投資型保單,Variable Account,1,本金履約保本型,PRINCIPAL PROTECTION,1,史坦普500指數保本型計畫,S&P 500 Index,1,T15W005501,,ITA,ITA,1,,,,,,,,,,,,,,,,,,,,,
4,Nomis,5,陳漢璿,"Chen, Han-Hsun",先生,hanbury.ceo@gmail.com,54,投資,1,投資型保單,Variable Account,1,本金履約保本型,PRINCIPAL PROTECTION,1,史坦普500指數保本型計畫,S&P 500 Index,1,T15W005976,,ITA,ITA,1,,,,,,,,,,,,,,,,,,,,,
8,Paul,2,宋友齡,"SUNG, YU-LING",小姐,Sally@trufflenoodles.com,107,保險,2,指數型萬能壽險,Index Universal Life,2,Voya 指數型 - 全球選擇,Voya Indexed UL - Global Choice,2,Voya Indexed UL - Global Choice (3Mark),Voya Indexed UL - Global Choice (3Mark),2,911755635,,Voya Financial (3Mark),Voya Financial (3Mark),2,,,,,,,,,,,,,,,,,,,,,
10,Paul,2,宋佳欣,"SONG,CHIA-HSING",小姐,jchsong@andlife.com.tw,108,保險,2,指數型萬能壽險,Index Universal Life,2,Voya 指數型 - 全球選擇,Voya Indexed UL - Global Choice,2,Voya Indexed UL - Global Choice (3Mark),Voya Indexed UL - Global Choice (3Mark),2,911755653,,Voya Financial (3Mark),Voya Financial (3Mark),2,,,,,,,,,,,,,,,,,,,,,
11,Paul,2,許瑞杉,"SHEU,RUEY-SHAN",先生,lyp1227@ms13.hinet.net,131,保險,2,指數型萬能壽險,Index Universal Life,2,Voya 指數型 - 全球選擇,Voya Indexed UL - Global Choice,2,Voya Indexed UL - Global Choice (3Mark),Voya Indexed UL - Global Choice (3Mark),2,911755365,,Voya Financial (3Mark),Voya Financial (3Mark),2,,,,,,,,,,,,,,,,,,,,,
12,Paul,2,熊滿芳,"HSIUNG,MAN-FANG",女士,jerry.sheu@msa.hinet.net,137,保險,2,指數型萬能壽險,Index Universal Life,2,Voya 指數型 - 全球選擇,Voya Indexed UL - Global Choice,2,Voya Indexed UL - Global Choice (3Mark),Voya Indexed UL - Global Choice (3Mark),2,911755366,,Voya Financial (3Mark),Voya Financial (3Mark),2,,,,,,,,,,,,,,,,,,,,,
13,Paul,2,侯忠穎,"HOU, CHUNG-YING",先生,monkeyian@msn.com,124,保險,2,指數型萬能壽險,Index Universal Life,2,Voya 指數型 - 全球選擇,Voya Indexed UL - Global Choice,2,Voya Indexed UL - Global Choice (3Mark),Voya Indexed UL - Global Choice (3Mark),2,911758770,,Voya Financial (3Mark),Voya Financial (3Mark),2,,,,,,,,,,,,,,,,,,,,,
21,Paul,2,林志憶,"LIN, CHIH-YI",先生,mountaim915@hotmail.com,117,保險,2,指數型萬能壽險,Index Universal Life,2,Voya 指數型 - 全球選擇,Voya Indexed UL - Global Choice,2,Voya Indexed UL - Global Choice (3Mark),Voya Indexed UL - Global Choice (3Mark),2,911758771,,Voya Financial (3Mark),Voya Financial (3Mark),2,,,,,,,,,,,,,,,,,,,,,
32,Paul,2,楊玉慈,"YANG, YU-TZU",小姐,lewee7835@hotmail.com,135,保險,2,指數型萬能壽險,Index Universal Life,2,Voya 指數型 - 全球選擇,Voya Indexed UL - Global Choice,2,Voya Indexed UL - Global Choice (3Mark),Voya Indexed UL - Global Choice (3Mark),2,911761191,,Voya Financial (3Mark),Voya Financial (3Mark),2,,,,,,,,,,,,,,,,,,,,,
177,Aaron,1,曹汝萍,"Cao,Ru-Ping",女士,13801666586@163.com,42,保險,2,指數型萬能壽險,Index Universal Life,2,Voya 指數型 - 全球選擇,Voya Indexed UL - Global Choice,2,Voya Indexed UL - Global Choice (3Mark),Voya Indexed UL - Global Choice (3Mark),2,911755000,,Voya Financial (3Mark),Voya Financial (3Mark),2,,,,,,,,,,,,,,,,,,,,,
179,Aaron,1,曹汝萍,"Cao,Ru-Ping",女士,13801666586@163.com,42,保險,2,指數型萬能壽險,Index Universal Life,2,Voya 指數型 - 全球選擇,Voya Indexed UL - Global Choice,2,Voya Indexed UL - Global Choice (3Mark),Voya Indexed UL - Global Choice (3Mark),2,911755000,,Voya Financial (3Mark),Voya Financial (3Mark),2,,,,,,,,,,,,,,,,,,,,,
180,Aaron,1,湯福明,"Tang, Fu-Ming",先生,creopatara@hotmail.com,58,保險,2,指數型萬能壽險,Index Universal Life,2,Voya 指數型 - 全球選擇,Voya Indexed UL - Global Choice,2,Voya Indexed UL - Global Choice (3Mark),Voya Indexed UL - Global Choice (3Mark),2,911748254,,Voya Financial (3Mark),Voya Financial (3Mark),2,,,,,,,,,,,,,,,,,,,,,
186,Aaron,1,朱慧勤,Zhu HuiQin,小姐,13801666586@163.com,9,保險,2,指數型萬能壽險,Index Universal Life,2,Voya 指數型 - 全球選擇,Voya Indexed UL - Global Choice,2,Voya Indexed UL - Global Choice (3Mark),Voya Indexed UL - Global Choice (3Mark),2,911755006,,Voya Financial (3Mark),Voya Financial (3Mark),2,,,,,,,,,,,,,,,,,,,,,
188,Aaron,1,鄭涵文,"Zheng, Han-Wen",女士,,76,保險,2,指數型萬能壽險,Index Universal Life,2,Voya 指數型 - 全球選擇,Voya Indexed UL - Global Choice,2,Voya Indexed UL - Global Choice (3Mark),Voya Indexed UL - Global Choice (3Mark),2,911756356,,Voya Financial (3Mark),Voya Financial (3Mark),2,,,,,,,,,,,,,,,,,,,,,
189,Aaron,1,胡秉,"Hu, Bing",先生,touchstone74@hotmail.com,29,保險,2,指數型萬能壽險,Index Universal Life,2,Voya 指數型 - 全球選擇,Voya Indexed UL - Global Choice,2,Voya Indexed UL - Global Choice (3Mark),Voya Indexed UL - Global Choice (3Mark),2,911756354,,Voya Financial (3Mark),Voya Financial (3Mark),2,,,,,,,,,,,,,,,,,,,,,
9,Paul,2,江岳樺,"CHIANG, YUEH-HUA",先生,samchiang12@gmail.com,106,保險,2,指數型萬能壽險,Index Universal Life,2,Voya 指數型 - 全球選擇,Voya Indexed UL - Global Choice,2,Voya Indexed UL - Global Choice (Pacific Bridge),Voya Indexed UL - Global Choice (Pacific Bridge),3,911759232,,Voya Financial (Pacific Bridge),Voya Financial (Pacific Bridge),3,,,,,,,,,,,,,,,,,,,,,
191,Aaron,1,云天飛,"Yun, Tian-Fei",先生,228876948@qq.com,1,保險,2,指數型萬能壽險,Index Universal Life,2,Voya 指數型 - 全球選擇,Voya Indexed UL - Global Choice,2,Voya Indexed UL - Global Choice (Pacific Bridge),Voya Indexed UL - Global Choice (Pacific Bridge),3,911758774,,Voya Financial (Pacific Bridge),Voya Financial (Pacific Bridge),3,,,,,,,,,,,,,,,,,,,,,
44,Aaron,1,宗宇騏,"Tsung, Yu-Chi",先生,tsungyuchi@gmail.com,17,保險,2,指數型萬能壽險,Index Universal Life,2,Voya 指數型 - 全球選擇,Voya Indexed UL - Global Choice,2,Voya Indexed UL - Global Choice (Transpacific),Voya Indexed UL - Global Choice (Transpacific),4,911752834,,Voya Financial (Transpacific),Voya Financial (Transpacific),4,,,,,,,,,,,,,,,,,,,,,
54,Ivan,3,徐建業,"Hsu,Chien-Yeh",先生,cyhsu@tmu.edu.tw,86,保險,2,指數型萬能壽險,Index Universal Life,2,Voya 指數型 - 全球,Voya Indexed UL - Global,3,Voya Indexed UL - Global  (ING),Voya Indexed UL - Global  (ING),5,911703769,,Voya Financial (Transpacific),Voya Financial (Transpacific),4,,,,,,,,,,,,,,,,,,,,,
4,Paul,2,李明憲,"LEE, MING-HSIEN",先生,Steven_Lee@keeyang-engineering.com,109,保險,2,指數型萬能壽險,Index Universal Life,2,Voya 指數型 - 全球,Voya Indexed UL - Global,3,Voya Indexed UL - Global  (ING),Voya Indexed UL - Global  (ING),5,911738439,,Voya Financial (Transpacific),Voya Financial (Transpacific),4,,,,,,,,,,,,,,,,,,,,,
5,Aaron,1,吳櫂筵,"Wu, Chao-Yen",先生,tp27621638@gmail.com,14,保險,2,指數型萬能壽險,Index Universal Life,2,Voya 指數型 - 全球,Voya Indexed UL - Global,3,Voya Indexed UL - Global  (ING),Voya Indexed UL - Global  (ING),5,911703256,,Voya Financial (Transpacific),Voya Financial (Transpacific),4,,,,,,,,,,,,,,,,,,,,,
7,Paul,2,李彥明,"LEE,YEN-MING",先生,sheilachu30732@gmail.com,111,保險,2,指數型萬能壽險,Index Universal Life,2,Voya 指數型 - 全球選擇,Voya Indexed UL - Global Choice,2,Voya Indexed UL - Global Choice (Transpacific),Voya Indexed UL - Global Choice (Transpacific),4,911751973,,Voya Financial (Transpacific),Voya Financial (Transpacific),4,,,,,,,,,,,,,,,,,,,,,
8,Aaron,1,蔡堉臻,"Tsai, Yu-Chen",女士,tp27621638@gmail.com,73,保險,2,指數型萬能壽險,Index Universal Life,2,Voya 指數型 - 全球,Voya Indexed UL - Global,3,Voya Indexed UL - Global  (ING),Voya Indexed UL - Global  (ING),5,911703359,,Voya Financial (Transpacific),Voya Financial (Transpacific),4,,,,,,,,,,,,,,,,,,,,,
9,Aaron,1,林韋芍,"Lin, Wei-Shao",女士,rose@shinelong.com.tw,19,保險,2,指數型萬能壽險,Index Universal Life,2,Voya 指數型 - 全球,Voya Indexed UL - Global,3,Voya Indexed UL - Global  (ING),Voya Indexed UL - Global  (ING),5,911693223,,Voya Financial (Transpacific),Voya Financial (Transpacific),4,,,,,,,,,,,,,,,,,,,,,
12,Aaron,1,袁啟森,"Yuan, Chi-Sen",先生,yuansama@yahoo.com.tw,33,保險,2,保證死亡給付萬能壽險,Guaranteed Death Benefit Universal Life,3,ING 保證死亡給付萬能壽險 II,ING Guaranteed Death Benefit Universal Life II,4,VOYA GUARANTEE  DB UL 2,VOYA GUARANTEE  DB UL 2,6,911688720,,Voya Financial (Transpacific),Voya Financial (Transpacific),4,,,,,,,,,,,,,,,,,,,,,
13,Aaron,1,袁啟森,"Yuan, Chi-Sen",先生,yuansama@yahoo.com.tw,33,保險,2,指數型萬能壽險,Index Universal Life,2,Voya 指數型 - 全球選擇,Voya Indexed UL - Global Choice,2,Voya Indexed UL - Global Choice (Transpacific),Voya Indexed UL - Global Choice (Transpacific),4,911744616,,Voya Financial (Transpacific),Voya Financial (Transpacific),4,,,,,,,,,,,,,,,,,,,,,
18,Aaron,1,王糴緗,"Wang, Di-Xiang",小姐,hanbury.ceo@gmail.com,7,保險,2,指數型萬能壽險,Index Universal Life,2,Voya 指數型 - 全球,Voya Indexed UL - Global,3,Voya Indexed UL - Global  (ING),Voya Indexed UL - Global  (ING),5,911723967,,Voya Financial (Transpacific),Voya Financial (Transpacific),4,,,,,,,,,,,,,,,,,,,,,
22,Aaron,1,陳漢璿,"Chen, Han-Hsun",先生,hanbury.ceo@gmail.com,54,保險,2,指數型萬能壽險,Index Universal Life,2,Voya 指數型 - 全球,Voya Indexed UL - Global,3,Voya Indexed UL - Global  (ING),Voya Indexed UL - Global  (ING),5,911706927,,Voya Financial (Transpacific),Voya Financial (Transpacific),4,,,,,,,,,,,,,,,,,,,,,
23,Aaron,1,陳漢璿,"Chen, Han-Hsun",先生,hanbury.ceo@gmail.com,54,保險,2,指數型萬能壽險,Index Universal Life,2,Voya 指數型 - 全球,Voya Indexed UL - Global,3,Voya Indexed UL - Global  (ING),Voya Indexed UL - Global  (ING),5,911725811,,Voya Financial (Transpacific),Voya Financial (Transpacific),4,,,,,,,,,,,,,,,,,,,,,
29,Paul,2,李鳳花,"LEE,FENG-HUA",女士,lewee7835@hotmail.com,115,保險,2,指數型萬能壽險,Index Universal Life,2,Voya 指數型 - 全球,Voya Indexed UL - Global,3,Voya Indexed UL - Global  (ING),Voya Indexed UL - Global  (ING),5,911738512,,Voya Financial (Transpacific),Voya Financial (Transpacific),4,,,,,,,,,,,,,,,,,,,,,
31,Paul,2,李威樺,"LEE,WEI-HUA",先生,lewee7835@hotmail.com,110,保險,2,指數型萬能壽險,Index Universal Life,2,Voya 指數型 - 全球,Voya Indexed UL - Global,3,Voya Indexed UL - Global  (ING),Voya Indexed UL - Global  (ING),5,911738516,,Voya Financial (Transpacific),Voya Financial (Transpacific),4,,,,,,,,,,,,,,,,,,,,,
33,Paul,2,歐尚俊,"OU,SHANG-CHUN",先生,naomi4100@yahoo.com.tw,139,保險,2,指數型萬能壽險,Index Universal Life,2,Voya 指數型 - 全球,Voya Indexed UL - Global,3,Voya Indexed UL - Global  (ING),Voya Indexed UL - Global  (ING),5,911738448,,Voya Financial (Transpacific),Voya Financial (Transpacific),4,,,,,,,,,,,,,,,,,,,,,
35,Aaron,1,蘇惠娟,"Su, Hui-Chuan",女士,shc@scsb.com.tw,80,保險,2,指數型萬能壽險,Index Universal Life,2,Voya 指數型 - 全球,Voya Indexed UL - Global,3,Voya Indexed UL - Global  (ING),Voya Indexed UL - Global  (ING),5,911720702,,Voya Financial (Transpacific),Voya Financial (Transpacific),4,,,,,,,,,,,,,,,,,,,,,
35,Paul,2,李瑜真,"LEE,YU-CHEN",小姐,naomi4100@yahoo.com.tw,114,保險,2,指數型萬能壽險,Index Universal Life,2,Voya 指數型 - 全球,Voya Indexed UL - Global,3,Voya Indexed UL - Global  (ING),Voya Indexed UL - Global  (ING),5,911738421,,Voya Financial (Transpacific),Voya Financial (Transpacific),4,,,,,,,,,,,,,,,,,,,,,
37,Paul,2,張菊英,"CHANG,CHU-YING",女士,cynthia6010@hotmail.com,127,保險,2,指數型萬能壽險,Index Universal Life,2,Voya 指數型 - 全球,Voya Indexed UL - Global,3,Voya Indexed UL - Global  (ING),Voya Indexed UL - Global  (ING),5,911737233,,Voya Financial (Transpacific),Voya Financial (Transpacific),4,,,,,,,,,,,,,,,,,,,,,
65,Aaron,1,呂炫鋒,"Lu, Hsuan-Feng",先生,bio3366188@yahoo.com.tw,15,保險,2,指數型萬能壽險,Index Universal Life,2,Voya 指數型 - 全球選擇,Voya Indexed UL - Global Choice,2,Voya Indexed UL - Global Choice (ING),Voya Indexed UL - Global Choice (ING),7,911733704,,Voya Financial (Transpacific),Voya Financial (Transpacific),4,,,,,,,,,,,,,,,,,,,,,
66,Aaron,1,蔡佳蓉,"Tsai, Chia-Jung",女士,bio3366188@yahoo.com.tw,71,保險,2,指數型萬能壽險,Index Universal Life,2,Voya 指數型 - 全球,Voya Indexed UL - Global,3,Voya Indexed UL - Global  (ING),Voya Indexed UL - Global  (ING),5,911733707,,Voya Financial (Transpacific),Voya Financial (Transpacific),4,,,,,,,,,,,,,,,,,,,,,
82,Aaron,1,許糴_,"Hsu, Di-Shiuan",女士,happyjoan168@yahoo.com.tw,46,保險,2,指數型萬能壽險,Index Universal Life,2,Voya 指數型 - 全球,Voya Indexed UL - Global,3,Voya Indexed UL - Global  (ING),Voya Indexed UL - Global  (ING),5,911698227,,Voya Financial (Transpacific),Voya Financial (Transpacific),4,,,,,,,,,,,,,,,,,,,,,
87,Aaron,1,袁璟樂,"Yuan, Jing-Le",先生,happyjoan168@yahoo.com.tw,34,保險,2,指數型萬能壽險,Index Universal Life,2,Voya 指數型 - 全球,Voya Indexed UL - Global,3,Voya Indexed UL - Global  (ING),Voya Indexed UL - Global  (ING),5,911700882,,Voya Financial (Transpacific),Voya Financial (Transpacific),4,,,,,,,,,,,,,,,,,,,,,
99,Aaron,1,袁啟訓,"Yuan, Chi- Hsun",先生,yuan573@yahoo.com.tw,32,保險,2,指數型萬能壽險,Index Universal Life,2,Voya 指數型 - 全球,Voya Indexed UL - Global,3,Voya Indexed UL - Global  (ING),Voya Indexed UL - Global  (ING),5,911707422,,Voya Financial (Transpacific),Voya Financial (Transpacific),4,,,,,,,,,,,,,,,,,,,,,
103,Aaron,1,洪燕萍,"Hung, Yen-Ping",女士,yuan573@yahoo.com.tw,28,保險,2,指數型萬能壽險,Index Universal Life,2,Voya 指數型 - 全球,Voya Indexed UL - Global,3,Voya Indexed UL - Global  (ING),Voya Indexed UL - Global  (ING),5,911707426,,Voya Financial (Transpacific),Voya Financial (Transpacific),4,,,,,,,,,,,,,,,,,,,,,
105,Aaron,1,黃綵霓,"Huang, Tsai-Ni",女士,amy2012888@qq.com,64,保險,2,指數型萬能壽險,Index Universal Life,2,Voya 指數型 - 全球選擇,Voya Indexed UL - Global Choice,2,Voya Indexed UL - Global Choice (Transpacific),Voya Indexed UL - Global Choice (Transpacific),4,911737541,,Voya Financial (Transpacific),Voya Financial (Transpacific),4,,,,,,,,,,,,,,,,,,,,,
108,Aaron,1,林麗珠,"Lin, Li-Chu",女士,jammie0218@msn.com,23,保險,2,指數型萬能壽險,Index Universal Life,2,Voya 指數型 - 全球,Voya Indexed UL - Global,3,Voya Indexed UL - Global  (ING),Voya Indexed UL - Global  (ING),5,911720875,,Voya Financial (Transpacific),Voya Financial (Transpacific),4,,,,,,,,,,,,,,,,,,,,,
113,Aaron,1,曾仁芬,"Tseng, Jen-Fen",女士,jenfen0413@yahoo.com.tw,56,保險,2,指數型萬能壽險,Index Universal Life,2,Voya 指數型 - 全球,Voya Indexed UL - Global,3,Voya Indexed UL - Global  (ING),Voya Indexed UL - Global  (ING),5,911709807,,Voya Financial (Transpacific),Voya Financial (Transpacific),4,,,,,,,,,,,,,,,,,,,,,
124,Aaron,1,楊欣蕙,"Yang, Hsin-Hui",女士,liu-yang-lulu@yahoo.com.tw,66,保險,2,指數型萬能壽險,Index Universal Life,2,Voya 指數型 - 全球,Voya Indexed UL - Global,3,Voya Indexed UL - Global  (ING),Voya Indexed UL - Global  (ING),5,911727204,,Voya Financial (Transpacific),Voya Financial (Transpacific),4,,,,,,,,,,,,,,,,,,,,,
129,Aaron,1,吳正基,"Wu, Cheng-Chi",先生,a321042001@yahoo.com.tw,11,保險,2,指數型萬能壽險,Index Universal Life,2,Voya 指數型 - 全球,Voya Indexed UL - Global,3,Voya Indexed UL - Global  (ING),Voya Indexed UL - Global  (ING),5,911714788,,Voya Financial (Transpacific),Voya Financial (Transpacific),4,,,,,,,,,,,,,,,,,,,,,
130,Aaron,1,許淑華,"Hsu, Shu-Hua",女士,selina2656@hotmail.com,45,保險,2,指數型萬能壽險,Index Universal Life,2,Voya 指數型 - 全球,Voya Indexed UL - Global,3,Voya Indexed UL - Global  (ING),Voya Indexed UL - Global  (ING),5,911714793,,Voya Financial (Transpacific),Voya Financial (Transpacific),4,,,,,,,,,,,,,,,,,,,,,
146,Aaron,1,王琳,"Wang, Lin",小姐,linmay09222@yahoo.com.tw,5,保險,2,指數型萬能壽險,Index Universal Life,2,Voya 指數型 - 全球,Voya Indexed UL - Global,3,Voya Indexed UL - Global  (ING),Voya Indexed UL - Global  (ING),5,911712617,,Voya Financial (Transpacific),Voya Financial (Transpacific),4,,,,,,,,,,,,,,,,,,,,,
148,Aaron,1,郭晉禾,"Kuo, Chin-Ho",先生,wallacekuo@yahoo.com.tw,48,保險,2,指數型萬能壽險,Index Universal Life,2,Voya 指數型 - 全球,Voya Indexed UL - Global,3,Voya Indexed UL - Global  (ING),Voya Indexed UL - Global  (ING),5,911698762,,Voya Financial (Transpacific),Voya Financial (Transpacific),4,,,,,,,,,,,,,,,,,,,,,
176,Aaron,1,王姝蕾,"Wang, Shu-Lei",小姐,27820298@qq.com,2,保險,2,指數型萬能壽險,Index Universal Life,2,Voya 指數型 - 全球選擇,Voya Indexed UL - Global Choice,2,Voya Indexed UL - Global Choice (Transpacific),Voya Indexed UL - Global Choice (Transpacific),4,911751976,,Voya Financial (Transpacific),Voya Financial (Transpacific),4,,,,,,,,,,,,,,,,,,,,,
183,Aaron,1,湯藝穎,"Tang, Michelle",小姐,creopatara@163.com,59,保險,2,指數型萬能壽險,Index Universal Life,2,Voya 指數型 - 全球選擇,Voya Indexed UL - Global Choice,2,Voya Indexed UL - Global Choice (Transpacific),Voya Indexed UL - Global Choice (Transpacific),4,911748243,,Voya Financial (Transpacific),Voya Financial (Transpacific),4,,,,,,,,,,,,,,,,,,,,,
185,Aaron,1,郭海峰,Guo HaiFeng,先生,frankghf@163.com,49,保險,2,指數型萬能壽險,Index Universal Life,2,Voya 指數型 - 全球選擇,Voya Indexed UL - Global Choice,2,Voya Indexed UL - Global Choice (Transpacific),Voya Indexed UL - Global Choice (Transpacific),4,911753737,,Voya Financial (Transpacific),Voya Financial (Transpacific),4,,,,,,,,,,,,,,,,,,,,,
192,Aaron,1,陸芷彥,"Lu, Zhi-Yan",女士,460716096@qq.com,55,保險,2,指數型萬能壽險,Index Universal Life,2,Voya 指數型 - 全球選擇,Voya Indexed UL - Global Choice,2,Voya Indexed UL - Global Choice (Pacific Bridge),Voya Indexed UL - Global Choice (Pacific Bridge),3,911758769,,Voya Financial (Transpacific),Voya Financial (Transpacific),4,,,,,,,,,,,,,,,,,,,,,
74,Aaron,1,詹巧玲,"Chan, Chiao-Ling",女士,ciaoling168@gmail.com,69,房地產,3,英國房產,UK Housing,4,房產創富計畫-Colonial Chambers,"Apart-Hotel (Colonial Chambers, Liverpool)",5,Hanbury Tower-Colonial Chambers,Hanbury Tower-Colonial Chambers,8,HC1-010-0002,,We Resident Group Limited,We Resident Group Limited,5,,,,,,,,,,,,,,,,,,,,,
139,Aaron,1,張若珊,"Chang, Jo-Shan",女士,,37,房地產,3,英國房產,UK Housing,4,房產創富計畫-Colonial Chambers,"Apart-Hotel (Colonial Chambers, Liverpool)",5,Hanbury Tower-Colonial Chambers,Hanbury Tower-Colonial Chambers,8,HC1-010-0003,,We Resident Group Limited,We Resident Group Limited,5,,,,,,,,,,,,,,,,,,,,,
190,Aaron,1,蔣如豪,"Chiang, Ju",先生,,74,投資,1,投資型保單,Variable Account,1,Zurich 豐盛人生,Zurich-Vista,6,豐盛人生,Vista,9,9883854,9883854,蘇黎世國際人壽保險,Zurich International Life Ltd.,6,,,,,,,,,,,,,,,,,,,,,
95,Aaron,1,黃致愷,"Huang, Chih-Kai",先生,dr.jeff.rich@gmail.com,60,投資,1,投資型保單,Variable Account,1,AIA 資本匯聚友邦投資計劃 ,AIA-Capital Saver,7,資本匯聚友邦投資計劃 ,Capital Saver,10,B070250631,B070250631,友邦保險(國際) 有限公司,AIA,7,,,,,,,,,,,,,,,,,,,,,
47,Paul,2,汪清森,"WANG, QING-SEN",先生,,116,洽談中,4,洽談中,洽談中,5,洽談中,洽談中,8,洽談中,洽談中,11,,,洽談中,洽談中,8,,,,,,,,,,,,,,,,,,,,,
48,Paul,2,盧嘉楠,"LU, JIA-NAN",女士,,142,洽談中,4,洽談中,洽談中,5,洽談中,洽談中,8,洽談中,洽談中,11,,,洽談中,洽談中,8,,,,,,,,,,,,,,,,,,,,,
126,Aaron,1,徐日新,"Hsu, Jin-Hsin",先生,,31,洽談中,4,洽談中,洽談中,5,洽談中,洽談中,8,洽談中,洽談中,11,,,洽談中,洽談中,8,,,,,,,,,,,,,,,,,,,,,
127,Aaron,1,陳泳頤,"Chen, Yong-Yi",女士,,51,洽談中,4,洽談中,洽談中,5,洽談中,洽談中,8,洽談中,洽談中,11,,,洽談中,洽談中,8,,,,,,,,,,,,,,,,,,,,,
85,Aaron,1,許糴_,"Hsu, Di-Shiuan",女士,happyjoan168@yahoo.com.tw,46,投資,1,投資型保單,Variable Account,1,MM 財智之選靈活投資計劃,MM-Premier-Chooice Flexi (PCF),9,"財智之選靈活投資計劃
",Zennith,12,84439566,84439566,美國萬通保險亞洲有限公司,MassMutual Asia Ltd.,9,,,,,,,,,,,,,,,,,,,,,
38,Aaron,1,馬文興,"Ma, Wen-Hsing",先生,"joseph.ma@hanburyifa.com,mawenhsing@gmail.com",35,房地產,3,英國房產,UK Housing,4,廣達麥迪遜投資房地產,Income Generating Homes Program,10,利物浦2號,"2 Moorfields, Liverpool",13,428,28852,英倫置業控股有限公司,G-Suite Holdings Limited,10,,,,,,,,,,,,,,,,,,,,,
39,Aaron,1,馬文興,"Ma, Wen-Hsing",先生,"mawenhsing@gmail.com,joseph.ma@hanburyifa.com",35,房地產,3,英國房產,UK Housing,4,廣達麥迪遜投資房地產,Income Generating Homes Program,10,利物浦2號,"2 Moorfields, Liverpool",13,430,29046,英倫置業控股有限公司,G-Suite Holdings Limited,10,,,,,,,,,,,,,,,,,,,,,
182,Aaron,1,湯福明,"Tang, Fu-Ming",先生,creopatara@hotmail.com,58,房地產,3,英國房產,UK Housing,4,廣達麥迪遜投資房地產,Income Generating Homes Program,10,利物浦2號,"2 Moorfields, Liverpool",13,201,22836,英倫置業控股有限公司,G-Suite Holdings Limited,10,,,,,,,,,,,,,,,,,,,,,
182,Aaron,1,湯福明,"Tang, Fu-Ming",先生,creopatara@hotmail.com,58,房地產,3,英國房產,UK Housing,4,廣達麥迪遜投資房地產,Income Generating Homes Program,10,利物浦2號,"2 Moorfields, Liverpool",13,229,22836,英倫置業控股有限公司,G-Suite Holdings Limited,10,,,,,,,,,,,,,,,,,,,,,
182,Aaron,1,湯福明,"Tang, Fu-Ming",先生,creopatara@hotmail.com,58,房地產,3,英國房產,UK Housing,4,廣達麥迪遜投資房地產,Income Generating Homes Program,10,利物浦2號,"2 Moorfields, Liverpool",13,232,22836,英倫置業控股有限公司,G-Suite Holdings Limited,10,,,,,,,,,,,,,,,,,,,,,
182,Aaron,1,湯福明,"Tang, Fu-Ming",先生,creopatara@hotmail.com,58,房地產,3,英國房產,UK Housing,4,廣達麥迪遜投資房地產,Income Generating Homes Program,10,利物浦2號,"2 Moorfields, Liverpool",13,233,22836,英倫置業控股有限公司,G-Suite Holdings Limited,10,,,,,,,,,,,,,,,,,,,,,
183,Aaron,1,湯藝穎,"Tang, Michelle",小姐,creopatara@163.com,59,房地產,3,英國房產,UK Housing,4,廣達麥迪遜投資房地產,Income Generating Homes Program,10,利物浦2號,"2 Moorfields, Liverpool",13,228,28837,英倫置業控股有限公司,G-Suite Holdings Limited,10,,,,,,,,,,,,,,,,,,,,,
183,Aaron,1,湯藝穎,"Tang, Michelle",小姐,creopatara@163.com,59,房地產,3,英國房產,UK Housing,4,廣達麥迪遜投資房地產,Income Generating Homes Program,10,利物浦2號,"2 Moorfields, Liverpool",13,230,28837,英倫置業控股有限公司,G-Suite Holdings Limited,10,,,,,,,,,,,,,,,,,,,,,
184,Aaron,1,湯藝穎,"Tang, Michelle",小姐,creopatara@163.com,59,房地產,3,英國房產,UK Housing,4,廣達麥迪遜投資房地產,Income Generating Homes Program,10,利物浦2號,"2 Moorfields, Liverpool",13,227,28837,英倫置業控股有限公司,G-Suite Holdings Limited,10,,,,,,,,,,,,,,,,,,,,,
184,Aaron,1,湯藝穎,"Tang, Michelle",小姐,creopatara@163.com,59,房地產,3,英國房產,UK Housing,4,廣達麥迪遜投資房地產,Income Generating Homes Program,10,利物浦2號,"2 Moorfields, Liverpool",13,231,28837,英倫置業控股有限公司,G-Suite Holdings Limited,10,,,,,,,,,,,,,,,,,,,,,
1,Aaron,1,莊隆霖,"Chuang, Lung-Lin",先生,aaronchuang6755@gmail.com,43,投資,1,投資型保單,Variable Account,1,FPI 優裕計劃 ,FPI-Premier,11,優裕計劃 ,Premier,14,Q500403409,17661074,英國友誠國際有限公司,Friend Provident International,11,,,,,,,,,,,,,,,,,,,,,
1,Paul,2,林憶青,"LIN,YI-CHING",小姐,chingching1106@yahoo.com.tw,120,投資,1,投資型保單,Variable Account,1,FPI 優裕計劃 ,FPI-Premier,11,優裕計劃 ,Premier,14,Q500383063,17228149,英國友誠國際有限公司,Friend Provident International,11,,,,,,,,,,,,,,,,,,,,,
2,Paul,2,廖靖偉,"LIAO,CHING-WEI",小姐,cwliao@tw.ibm.com,136,投資,1,投資型保單,Variable Account,1,FPI 優裕計劃 ,FPI-Premier,11,優裕計劃 ,Premier,14,Q500390604,17340536,英國友誠國際有限公司,Friend Provident International,11,,,,,,,,,,,,,,,,,,,,,
3,Paul,2,翁芷瑩,"WENG,CHIH-YING",小姐,conjectural@hotmail.com,125,投資,1,投資型保單,Variable Account,1,FPI 優裕計劃 ,FPI-Premier,11,優裕計劃 ,Premier,14,Q500399082,17511707,英國友誠國際有限公司,Friend Provident International,11,,,,,,,,,,,,,,,,,,,,,
7,Aaron,1,蔡堉臻,"Tsai, Yu-Chen",女士,tp27621638@gmail.com,73,投資,1,投資型保單,Variable Account,1,FPI 卓裕計劃 ,FPI-Premier Ultra,12,卓裕計劃 ,Premier- Ultra,15,Q500209620,16527096,英國友誠國際有限公司,Friend Provident International,11,,,,,,,,,,,,,,,,,,,,,
11,Aaron,1,袁啟森,"Yuan, Chi-Sen",先生,yuansama@yahoo.com.tw,33,投資,1,投資型保單,Variable Account,1,FPI 卓裕計劃 ,FPI-Premier Ultra,12,卓裕計劃 ,Premier- Ultra,15,Q500359339,16895868,英國友誠國際有限公司,Friend Provident International,11,,,,,,,,,,,,,,,,,,,,,
14,Ivan,3,林和燕,"Lin, Ho- Yen",女士,linhoyen@yahoo.com.tw,83,投資,1,投資型保單,Variable Account,1,FPI 優裕計劃 ,FPI-Premier,11,優裕計劃 ,Premier,14,Q500200780,16464428,英國友誠國際有限公司,Friend Provident International,11,,,,,,,,,,,,,,,,,,,,,
15,Ivan,3,李廣韻,"Lee, Kuang-Yun",女士,kuang061@gmail.com,82,投資,1,投資型保單,Variable Account,1,FPI 卓裕計劃 ,FPI-Premier Ultra,12,卓裕計劃 ,Premier- Ultra,15,Q500176466,16399239,英國友誠國際有限公司,Friend Provident International,11,,,,,,,,,,,,,,,,,,,,,
16,Ivan,3,李廣韻,"Lee, Kuang-Yun",女士,kuang061@gmail.com,82,投資,1,投資型保單,Variable Account,1,FPI 優裕計劃 ,FPI-Premier,11,優裕計劃 ,Premier,14,Q621194861 ,621194861,英國友誠國際有限公司,Friend Provident International,11,,,,,,,,,,,,,,,,,,,,,
16,Paul,2,邱崇恩,"CHIU,CHONG-EN",先生,ferarri360922@yahoo.com.tw ,123,投資,1,投資型保單,Variable Account,1,FPI 優裕計劃 ,FPI-Premier,11,優裕計劃 ,Premier,14,Q500375597,17101510,英國友誠國際有限公司,Friend Provident International,11,,,,,,,,,,,,,,,,,,,,,
17,Paul,2,賴力豪,"LAI,LI-HAO",先生,lary1106@gmail.com,143,投資,1,投資型保單,Variable Account,1,FPI 優裕計劃 ,FPI-Premier,11,優裕計劃 ,Premier,14,Q500377788,17118448,英國友誠國際有限公司,Friend Provident International,11,,,,,,,,,,,,,,,,,,,,,
18,Paul,2,張簡敬軒,"CHANG CHIEN,CHING-HSUAN",先生,alexminic72@gmai.com,129,投資,1,投資型保單,Variable Account,1,FPI 優裕計劃 ,FPI-Premier,11,優裕計劃 ,Premier,14,Q500378775,17140547,英國友誠國際有限公司,Friend Provident International,11,,,,,,,,,,,,,,,,,,,,,
19,Aaron,1,陳漢璿,"Chen, Han-Hsun",先生,hanbury.ceo@gmail.com,54,投資,1,投資型保單,Variable Account,1,FPI 卓裕計劃 ,FPI-Premier Ultra,12,卓裕計劃 ,Premier- Ultra,15,Q500210334,16537939,英國友誠國際有限公司,Friend Provident International,11,,,,,,,,,,,,,,,,,,,,,
19,Paul,2,韓耀庭,"HAN,YAO-TING",先生,people8036810@hotmail.com,144,投資,1,投資型保單,Variable Account,1,FPI 優裕計劃 ,FPI-Premier,11,優裕計劃 ,Premier,14,Q500381336,17164392,英國友誠國際有限公司,Friend Provident International,11,,,,,,,,,,,,,,,,,,,,,
20,Aaron,1,陳漢璿,"Chen, Han-Hsun",先生,hanbury.ceo@gmail.com,54,投資,1,投資型保單,Variable Account,1,FPI 優裕計劃 ,FPI-Premier,11,優裕計劃 ,Premier,14,Q500101238,16040126,英國友誠國際有限公司,Friend Provident International,11,,,,,,,,,,,,,,,,,,,,,
20,Paul,2,陳怡方,"CHEN, YI-FANG",小姐,Mountain915@gmail.com,132,投資,1,投資型保單,Variable Account,1,FPI 優裕計劃 ,FPI-Premier,11,優裕計劃 ,Premier,14,Q500381337,17166839,英國友誠國際有限公司,Friend Provident International,11,,,,,,,,,,,,,,,,,,,,,
21,Aaron,1,陳漢璿,"Chen, Han-Hsun",先生,hanbury.ceo@gmail.com,54,投資,1,投資型保單,Variable Account,1,FPI 優裕計劃 ,FPI-Premier,11,優裕計劃 ,Premier,14,Q500398677,17511970,英國友誠國際有限公司,Friend Provident International,11,,,,,,,,,,,,,,,,,,,,,
22,Paul,2,陳勇先,"CHEN, YUNG-HSIEH",先生,k1231233@hotmail.com,133,投資,1,投資型保單,Variable Account,1,FPI 優裕計劃 ,FPI-Premier,11,優裕計劃 ,Premier,14,Q500382887,17215709,英國友誠國際有限公司,Friend Provident International,11,,,,,,,,,,,,,,,,,,,,,
23,Paul,2,李香瑩,"LEE,HSIANG-YING",小姐,ying0525@gmail.com,113,投資,1,投資型保單,Variable Account,1,FPI 優裕計劃 ,FPI-Premier,11,優裕計劃 ,Premier,14,Q500384276,17230872,英國友誠國際有限公司,Friend Provident International,11,,,,,,,,,,,,,,,,,,,,,
24,Paul,2,王安依,"WANG,AN-YI",小姐,ivy11082222@yahoo.com.tw,105,投資,1,投資型保單,Variable Account,1,FPI 優裕計劃 ,FPI-Premier,11,優裕計劃 ,Premier,14,Q500384409,17232635,英國友誠國際有限公司,Friend Provident International,11,,,,,,,,,,,,,,,,,,,,,
25,Paul,2,陳韋中,"CHEN,WEI-CHUNG",先生,smallcarter@gmail.com,134,投資,1,投資型保單,Variable Account,1,FPI 優裕計劃 ,FPI-Premier,11,優裕計劃 ,Premier,14,Q500387078,17294241,英國友誠國際有限公司,Friend Provident International,11,,,,,,,,,,,,,,,,,,,,,
26,Ivan,3,陳秀霞,"Chen,Hsiu-Hsia",女士,moretech@so-net.net.tw,89,投資,1,投資型保單,Variable Account,1,FPI 優裕計劃 ,FPI-Premier,11,優裕計劃 ,Premier,14,Q500047503,15523565,英國友誠國際有限公司,Friend Provident International,11,,,,,,,,,,,,,,,,,,,,,
26,Paul,2,方子健,"FANG,TZU-CHIEN",先生,s903347@hotmail.com,104,投資,1,投資型保單,Variable Account,1,FPI 優裕計劃 ,FPI-Premier,11,優裕計劃 ,Premier,14,Q500400029,17560425,英國友誠國際有限公司,Friend Provident International,11,,,,,,,,,,,,,,,,,,,,,
27,Ivan,3,陳秀霞,"Chen,Hsiu-Hsia",女士,moretech@so-net.net.tw,89,投資,1,投資型保單,Variable Account,1,FPI 優裕計劃 ,FPI-Premier,11,優裕計劃 ,Premier,14,Q500400934,17579286,英國友誠國際有限公司,Friend Provident International,11,,,,,,,,,,,,,,,,,,,,,
27,Paul,2,蔡明篤,"TSAI,MING-TU",先生,midu86@yahoo.com.tw,140,投資,1,投資型保單,Variable Account,1,FPI 優裕計劃 ,FPI-Premier,11,優裕計劃 ,Premier,14,Q500405501,17759059,英國友誠國際有限公司,Friend Provident International,11,,,,,,,,,,,,,,,,,,,,,
28,Aaron,1,張瑢糴,"Chang, Jung-Di",女士,jennychang@makoto.com.tw,41,投資,1,投資型保單,Variable Account,1,FPI 卓裕計劃 ,FPI-Premier Ultra,12,卓裕計劃 ,Premier- Ultra,15,Q500353082,16807644,英國友誠國際有限公司,Friend Provident International,11,,,,,,,,,,,,,,,,,,,,,
29,Aaron,1,張瑢糴,"Chang, Jung-Di",女士,jennychang@makoto.com.tw,41,投資,1,投資型保單,Variable Account,1,FPI 卓裕計劃 ,FPI-Premier Ultra,12,卓裕計劃 ,Premier- Ultra,15,Q500414805,18018354,英國友誠國際有限公司,Friend Provident International,11,,,,,,,,,,,,,,,,,,,,,
30,Aaron,1,王連銀渾,"Wang Lien,Yin-Hun",女士,tonywang512@gmail.com,4,投資,1,投資型保單,Variable Account,1,FPI 萬全智富投資計劃 ,FPI-Zennith (Lump Sum),13,萬全智富投資計劃 ,Zennith,16,Q500220827,16667941,英國友誠國際有限公司,Friend Provident International,11,,,,,,,,,,,,,,,,,,,,,
30,Paul,2,李威樺,"LEE,WEI-HUA",先生,lewee7835@hotmail.com,110,投資,1,投資型保單,Variable Account,1,FPI 優裕計劃 ,FPI-Premier,11,優裕計劃 ,Premier,14,Q500405964,17768245,英國友誠國際有限公司,Friend Provident International,11,,,,,,,,,,,,,,,,,,,,,
31,Aaron,1,王連銀渾,"Wang Lien,Yin-Hun",女士,tonywang512@gmail.com,4,投資,1,投資型保單,Variable Account,1,FPI 優裕計劃 ,FPI-Premier,11,優裕計劃 ,Premier,14,Q621542285,621542285,英國友誠國際有限公司,Friend Provident International,11,,,,,,,,,,,,,,,,,,,,,
34,Aaron,1,蘇惠娟,"Su, Hui-Chuan",女士,shc@scsb.com.tw,80,投資,1,投資型保單,Variable Account,1,FPI 卓裕計劃 ,FPI-Premier Ultra,12,卓裕計劃 ,Premier- Ultra,15,Q500382994,17232648,英國友誠國際有限公司,Friend Provident International,11,,,,,,,,,,,,,,,,,,,,,
34,Paul,2,李瑜真,"LEE,YU-CHEN",小姐,naomi4100@yahoo.com.tw,114,投資,1,投資型保單,Variable Account,1,FPI 優裕計劃 ,FPI-Premier,11,優裕計劃 ,Premier,14,Q500405963,17768438,英國友誠國際有限公司,Friend Provident International,11,,,,,,,,,,,,,,,,,,,,,
36,Paul,2,李柏融,"LI,PO-RUNG",先生,paul.li@hanburyifa.com,112,投資,1,投資型保單,Variable Account,1,FPI 優裕計劃 ,FPI-Premier,11,優裕計劃 ,Premier,14,Q500140849,16378290,英國友誠國際有限公司,Friend Provident International,11,,,,,,,,,,,,,,,,,,,,,
37,Aaron,1,馬文興,"Ma, Wen-Hsing",先生,"joseph.ma@hanburyifa.com,mawenhsing@gmail.com",35,投資,1,投資型保單,Variable Account,1,FPI 卓裕計劃 ,FPI-Premier Ultra,12,卓裕計劃 ,Premier- Ultra,15,Q500409201,17871558,英國友誠國際有限公司,Friend Provident International,11,,,,,,,,,,,,,,,,,,,,,
37,Paul,2,張菊英,"CHANG,CHU-YING",女士,cynthia6010@hotmail.com,127,投資,1,投資型保單,Variable Account,1,FPI 優裕計劃 ,FPI-Premier,11,優裕計劃 ,Premier,14,Q500408635,17847953,英國友誠國際有限公司,Friend Provident International,11,,,,,,,,,,,,,,,,,,,,,
38,Paul,2,邱玟萍,"CHIU,WEN-PING",小姐,wenpingchiu1980@gmail.com,122,投資,1,投資型保單,Variable Account,1,FPI 優裕計劃 ,FPI-Premier,11,優裕計劃 ,Premier,14,Q500402542,17636204,英國友誠國際有限公司,Friend Provident International,11,,,,,,,,,,,,,,,,,,,,,
39,Paul,2,蘇敬斌,"SU,JING-BIN",先生,soul_246@yahoo.com.tw,145,投資,1,投資型保單,Variable Account,1,FPI 優裕計劃 ,FPI-Premier,11,優裕計劃 ,Premier,14,Q500391086,17348695,英國友誠國際有限公司,Friend Provident International,11,,,,,,,,,,,,,,,,,,,,,
40,Aaron,1,陳淑雯,"Chen,Shu-Wen",女士,chen.dolphin@gmail.com,52,投資,1,投資型保單,Variable Account,1,FPI 優裕計劃 ,FPI-Premier,11,優裕計劃 ,Premier,14,Q500115572,16150486,英國友誠國際有限公司,Friend Provident International,11,,,,,,,,,,,,,,,,,,,,,
40,Paul,2,張加明,"CHANG,CHIA-MING",先生,dacumin@yahoo.com.tw,126,投資,1,投資型保單,Variable Account,1,FPI 優裕計劃 ,FPI-Premier,11,優裕計劃 ,Premier,14,Q500399634,17522693,英國友誠國際有限公司,Friend Provident International,11,,,,,,,,,,,,,,,,,,,,,
41,Aaron,1,魏玉文,"Wei,Yu-Wen",女士,118520@mail.tku.edu.tw,79,投資,1,投資型保單,Variable Account,1,FPI 優裕計劃 ,FPI-Premier,11,優裕計劃 ,Premier,14,Q500112372,16134996,英國友誠國際有限公司,Friend Provident International,11,,,,,,,,,,,,,,,,,,,,,
41,Paul,2,張瑋宸,"CHANG,WEI-CHEN",先生,papamouse0724@yahoo.com.tw,128,投資,1,投資型保單,Variable Account,1,FPI 優裕計劃 ,FPI-Premier,11,優裕計劃 ,Premier,14,Q500407613,17819090,英國友誠國際有限公司,Friend Provident International,11,,,,,,,,,,,,,,,,,,,,,
42,Paul,2,林郁修,"LIN, YU-HSIU",先生,asiulin@gmail.com,119,投資,1,投資型保單,Variable Account,1,FPI 卓裕計劃 ,FPI-Premier Ultra,12,卓裕計劃 ,Premier- Ultra,15,Q500118001,16165991,英國友誠國際有限公司,Friend Provident International,11,,,,,,,,,,,,,,,,,,,,,
43,Aaron,1,宗宇騏,"Tsung, Yu-Chi",先生,tsungyuchi@gmail.com,17,投資,1,投資型保單,Variable Account,1,FPI 卓裕計劃 ,FPI-Premier Ultra,12,卓裕計劃 ,Premier- Ultra,15,Q500356917,16866403,英國友誠國際有限公司,Friend Provident International,11,,,,,,,,,,,,,,,,,,,,,
44,Paul,2,梁家倫,"LIANG, CHIA LUN",先生,twogallons@gmail.com,130,投資,1,投資型保單,Variable Account,1,FPI 優裕計劃 ,FPI-Premier,11,優裕計劃 ,Premier,14,Q500376352,17102406,英國友誠國際有限公司,Friend Provident International,11,,,,,,,,,,,,,,,,,,,,,
45,Aaron,1,黃韋中,"Huang, Wei-Chung",先生,csie.chung@gmail.com,61,投資,1,投資型保單,Variable Account,1,FPI 優裕計劃 ,FPI-Premier,11,優裕計劃 ,Premier,14,Q500390273,17335045,英國友誠國際有限公司,Friend Provident International,11,,,,,,,,,,,,,,,,,,,,,
46,Aaron,1,黃韋強,"Huang, Wei-Chiang",先生,chianger@gmail.com,62,投資,1,投資型保單,Variable Account,1,FPI 優裕計劃 ,FPI-Premier,11,優裕計劃 ,Premier,14,Q500123300,16216680,英國友誠國際有限公司,Friend Provident International,11,,,,,,,,,,,,,,,,,,,,,
47,Aaron,1,謝朝福,"Hsieh, Chao-Fu",先生,st.star@msa.hinet.net,78,投資,1,投資型保單,Variable Account,1,FPI 優裕計劃 ,FPI-Premier,11,優裕計劃 ,Premier,14,Q500402157,17645206 (退保),英國友誠國際有限公司,Friend Provident International,11,,,,,,,,,,,,,,,,,,,,,
50,Aaron,1,洪志鋒,"Hung,Chih-Feng",先生,crazyman1019@gmail.com,26,投資,1,投資型保單,Variable Account,1,FPI 優裕計劃 ,FPI-Premier,11,優裕計劃 ,Premier,14,Q500103297,16058518,英國友誠國際有限公司,Friend Provident International,11,,,,,,,,,,,,,,,,,,,,,
51,Ivan,3,徐建業,"Hsu,Chien-Yeh",先生,cyhsu@ntunhs.edu.tw,86,投資,1,投資型保單,Variable Account,1,FPI 卓裕計劃 ,FPI-Premier Ultra,12,卓裕計劃 ,Premier- Ultra,15,Q500115511,16148492,英國友誠國際有限公司,Friend Provident International,11,,,,,,,,,,,,,,,,,,,,,
52,Ivan,3,徐建業,"Hsu,Chien-Yeh",先生,cyhsu@ntunhs.edu.tw,86,投資,1,投資型保單,Variable Account,1,FPI 優裕計劃 ,FPI-Premier,11,優裕計劃 ,Premier,14,21375138,退保(解約),英國友誠國際有限公司,Friend Provident International,11,,,,,,,,,,,,,,,,,,,,,
53,Ivan,3,徐建業,"Hsu,Chien-Yeh",先生,cyhsu@ntunhs.edu.tw,86,投資,1,投資型保單,Variable Account,1,FPI 優裕計劃 ,FPI-Premier,11,優裕計劃 ,Premier,14,21466146,退保(解約),英國友誠國際有限公司,Friend Provident International,11,,,,,,,,,,,,,,,,,,,,,
55,Ivan,3,莊謙泰,"Chuang, Chien-Tai",先生,garychuang0909@yahoo.com.tw,87,投資,1,投資型保單,Variable Account,1,FPI 優裕計劃 ,FPI-Premier,11,優裕計劃 ,Premier,14,Q003959689,16378124,英國友誠國際有限公司,Friend Provident International,11,,,,,,,,,,,,,,,,,,,,,
59,Ivan,3,傅定弘,"Fu, Ding-Hung",先生,snake0513@hotmail.com,91,投資,1,投資型保單,Variable Account,1,FPI 優裕計劃 ,FPI-Premier,11,優裕計劃 ,Premier,14,Q500369680,17008603,英國友誠國際有限公司,Friend Provident International,11,,,,,,,,,,,,,,,,,,,,,
60,Ivan,3,游美華,"Yu, Mei-Hua",女士,chung3269@163.com,92,投資,1,投資型保單,Variable Account,1,FPI 嶺豐投資計劃 ,FPI-Summit,14,嶺豐投資計劃 ,Summit,17,Q500397201,17440988,英國友誠國際有限公司,Friend Provident International,11,,,,,,,,,,,,,,,,,,,,,
62,Aaron,1,洪崇源,"Hong, Chung-Yuan",先生,henry731025@yahoo.com.tw,27,投資,1,投資型保單,Variable Account,1,FPI 優裕計劃 ,FPI-Premier,11,優裕計劃 ,Premier,14,Q500370399,17016704,英國友誠國際有限公司,Friend Provident International,11,,,,,,,,,,,,,,,,,,,,,
63,Aaron,1,李陽裕,"Li, Yang-Yu",先生,host5677@yahoo.com.tw,16,投資,1,投資型保單,Variable Account,1,FPI 優裕計劃 ,FPI-Premier,11,優裕計劃 ,Premier,14,Q500222426,16680231,英國友誠國際有限公司,Friend Provident International,11,,,,,,,,,,,,,,,,,,,,,
64,Aaron,1,張詩淳,"Chang,Shih-Chun",小姐,anpoqoo@gmail.com,40,投資,1,投資型保單,Variable Account,1,FPI 優裕計劃 ,FPI-Premier,11,優裕計劃 ,Premier,14,Q500118055,16167661,英國友誠國際有限公司,Friend Provident International,11,,,,,,,,,,,,,,,,,,,,,
67,Aaron,1,詹巧玲,"Chan, Chiao-Ling",女士,ciaoling168@gmail.com,69,投資,1,投資型保單,Variable Account,1,FPI 卓裕計劃 ,FPI-Premier Ultra,12,卓裕計劃 ,Premier- Ultra,15,Q500210315,16538244,英國友誠國際有限公司,Friend Provident International,11,,,,,,,,,,,,,,,,,,,,,
68,Aaron,1,詹巧玲,"Chan, Chiao-Ling",女士,ciaoling168@gmail.com,69,投資,1,投資型保單,Variable Account,1,FPI 卓裕計劃 ,FPI-Premier Ultra,12,卓裕計劃 ,Premier- Ultra,15,Q500219903,16665728,英國友誠國際有限公司,Friend Provident International,11,,,,,,,,,,,,,,,,,,,,,
75,Ivan,3,謝廷進,"Hsieh, Ting-Chin",先生,yalin168@hotmail.com,95,投資,1,投資型保單,Variable Account,1,FPI 優裕計劃 ,FPI-Premier,11,優裕計劃 ,Premier,14,Q500378373,17135694,英國友誠國際有限公司,Friend Provident International,11,,,,,,,,,,,,,,,,,,,,,
76,Aaron,1,邱瑞蘋,"Chiu, Jui-Ping",女士,hanzhu.candy@msa.hinet.net,25,投資,1,投資型保單,Variable Account,1,FPI 優裕計劃 ,FPI-Premier,11,優裕計劃 ,Premier,14,Q500381050,17160200,英國友誠國際有限公司,Friend Provident International,11,,,,,,,,,,,,,,,,,,,,,
77,Ivan,3,吳月嫈,"Wu, Yueh-Ying",女士,winnie.yy.wu@cyntec.com,81,投資,1,投資型保單,Variable Account,1,FPI 靈活增長計劃,FPI-Flexible Growth Plan,15,靈活增長計劃,Flexible Growth Plan,18,Q621181036 ,621181036,英國友誠國際有限公司,Friend Provident International,11,,,,,,,,,,,,,,,,,,,,,
79,Ivan,3,葉美珍,"Yeh, Mei-Chen",女士,,93,投資,1,投資型保單,Variable Account,1,FPI 優裕計劃 ,FPI-Premier,11,優裕計劃 ,Premier,14,Q500182044,16452845,英國友誠國際有限公司,Friend Provident International,11,,,,,,,,,,,,,,,,,,,,,
80,Aaron,1,任家輝,"Jen,Chia-Hui",先生,ayumi7371@hotmail.com,8,投資,1,投資型保單,Variable Account,1,FPI 優裕計劃 ,FPI-Premier,11,優裕計劃 ,Premier,14,Q500131181,16273741,英國友誠國際有限公司,Friend Provident International,11,,,,,,,,,,,,,,,,,,,,,
81,Aaron,1,許糴_,"Hsu, Di-Shiuan",女士,happyjoan168@yahoo.com.tw,46,投資,1,投資型保單,Variable Account,1,FPI 卓裕計劃 ,FPI-Premier Ultra,12,卓裕計劃 ,Premier- Ultra,15,Q500027201,15177797,英國友誠國際有限公司,Friend Provident International,11,,,,,,,,,,,,,,,,,,,,,
86,Aaron,1,袁璟樂,"Yuan, Jing-Le",先生,happyjoan168@yahoo.com.tw,34,投資,1,投資型保單,Variable Account,1,FPI 卓裕計劃 ,FPI-Premier Ultra,12,卓裕計劃 ,Premier- Ultra,15,Q500039756,15418275,英國友誠國際有限公司,Friend Provident International,11,,,,,,,,,,,,,,,,,,,,,
88,Aaron,1,黃裕霖,"Huang, Yu-Lin",先生,nomisz3315@gmail.com,63,投資,1,投資型保單,Variable Account,1,FPI 優裕計劃 ,FPI-Premier,11,優裕計劃 ,Premier,14,Q500352820,16804510,英國友誠國際有限公司,Friend Provident International,11,,,,,,,,,,,,,,,,,,,,,
91,Aaron,1,楊玉敦,"Yang, Yu-Tun",女士,yudunyang@gmail.com,65,投資,1,投資型保單,Variable Account,1,FPI 靈活增長計劃,FPI-Flexible Growth Plan,15,靈活增長計劃,Flexible Growth Plan,18,21266682,Q621266682 (退保),英國友誠國際有限公司,Friend Provident International,11,,,,,,,,,,,,,,,,,,,,,
94,Aaron,1,黃致愷,"Huang, Chih-Kai",先生,dr.jeff.rich@gmail.com,60,投資,1,投資型保單,Variable Account,1,FPI 優裕計劃 ,FPI-Premier,11,優裕計劃 ,Premier,14,Q500130586,16266708,英國友誠國際有限公司,Friend Provident International,11,,,,,,,,,,,,,,,,,,,,,
96,Aaron,1,邱俊穎,"Chiu, Chun-Ying",先生,kbaiko@gmail.com,24,投資,1,投資型保單,Variable Account,1,FPI 優裕計劃 ,FPI-Premier,11,優裕計劃 ,Premier,14,Q500220842,16669086,英國友誠國際有限公司,Friend Provident International,11,,,,,,,,,,,,,,,,,,,,,
97,Aaron,1,袁啟訓,"Yuan, Chi- Hsun",先生,yuan573@yahoo.com.tw,32,投資,1,投資型保單,Variable Account,1,FPI 卓裕計劃 ,FPI-Premier Ultra,12,卓裕計劃 ,Premier- Ultra,15,Q500107943,16095497,英國友誠國際有限公司,Friend Provident International,11,,,,,,,,,,,,,,,,,,,,,
98,Aaron,1,袁啟訓,"Yuan, Chi- Hsun",先生,yuan573@yahoo.com.tw,32,投資,1,投資型保單,Variable Account,1,FPI 卓裕計劃 ,FPI-Premier Ultra,12,卓裕計劃 ,Premier- Ultra,15,Q500107944,16095513,英國友誠國際有限公司,Friend Provident International,11,,,,,,,,,,,,,,,,,,,,,
102,Aaron,1,洪燕萍,"Hung, Yen-Ping",女士,yuan573@yahoo.com.tw,28,投資,1,投資型保單,Variable Account,1,FPI 卓裕計劃 ,FPI-Premier Ultra,12,卓裕計劃 ,Premier- Ultra,15,Q500380634,17154894,英國友誠國際有限公司,Friend Provident International,11,,,,,,,,,,,,,,,,,,,,,
104,Aaron,1,張凱惠,"Chang, Kai-Hui",小姐,b9204148@stmail.cgu.edu.tw,39,投資,1,投資型保單,Variable Account,1,FPI 優裕計劃 ,FPI-Premier,11,優裕計劃 ,Premier,14,Q500367662,16984160,英國友誠國際有限公司,Friend Provident International,11,,,,,,,,,,,,,,,,,,,,,
106,Aaron,1,林麗珠,"Lin, Li-Chu",女士,jammie0218@msn.com,23,投資,1,投資型保單,Variable Account,1,FPI 萬全精英投資計劃 ,FPI-Elite (Lump Sum),16,萬全精英投資計劃 ,Elite,19,Q500220175,16662093,英國友誠國際有限公司,Friend Provident International,11,,,,,,,,,,,,,,,,,,,,,
107,Aaron,1,林麗珠,"Lin, Li-Chu",女士,jammie0218@msn.com,23,投資,1,投資型保單,Variable Account,1,FPI 卓裕計劃 ,FPI-Premier Ultra,12,卓裕計劃 ,Premier- Ultra,15,Q500352795,16805076,英國友誠國際有限公司,Friend Provident International,11,,,,,,,,,,,,,,,,,,,,,
109,Aaron,1,葉佳千,"Yeh, Chia-Chian",先生,alexyehh@hotmail.com,68,投資,1,投資型保單,Variable Account,1,FPI 優裕計劃 ,FPI-Premier,11,優裕計劃 ,Premier,14,Q621541378,621541378,英國友誠國際有限公司,Friend Provident International,11,,,,,,,,,,,,,,,,,,,,,
110,Aaron,1,曾仁芬,"Tseng, Jen-Fen",女士,jenfen0413@yahoo.com.tw,56,投資,1,投資型保單,Variable Account,1,FPI 卓裕計劃 ,FPI-Premier Ultra,12,卓裕計劃 ,Premier- Ultra,15,Q500118057,16167548,英國友誠國際有限公司,Friend Provident International,11,,,,,,,,,,,,,,,,,,,,,
111,Aaron,1,曾仁芬,"Tseng, Jen-Fen",女士,jenfen0413@yahoo.com.tw,56,投資,1,投資型保單,Variable Account,1,FPI 優裕計劃 ,FPI-Premier,11,優裕計劃 ,Premier,14,Q003058712,14197536,英國友誠國際有限公司,Friend Provident International,11,,,,,,,,,,,,,,,,,,,,,
112,Aaron,1,曾仁芬,"Tseng, Jen-Fen",女士,jenfen0413@yahoo.com.tw,56,投資,1,投資型保單,Variable Account,1,FPI 靈活增長計劃,FPI-Flexible Growth Plan ,15,靈活增長計劃,Flexible Growth Plan,18,Q621225639,Q621225639  (退保),英國友誠國際有限公司,Friend Provident International,11,,,,,,,,,,,,,,,,,,,,,
115,Aaron,1,溫瑋廷,"Wen, Wei-Ting",小姐,rita3353@yahoo.com.tw,67,投資,1,投資型保單,Variable Account,1,FPI 優裕計劃 ,FPI-Premier,11,優裕計劃 ,Premier,14,Q500107936,16096734,英國友誠國際有限公司,Friend Provident International,11,,,,,,,,,,,,,,,,,,,,,
116,Aaron,1,王絢臻,"Wang, Hsuan-Chen",女士,michelle@strengthmaster.com.tw,6,投資,1,投資型保單,Variable Account,1,FPI 卓裕計劃 ,FPI-Premier Ultra,12,卓裕計劃 ,Premier- Ultra,15,Q500141955,16383008,英國友誠國際有限公司,Friend Provident International,11,,,,,,,,,,,,,,,,,,,,,
117,Aaron,1,王絢臻,"Wang, Hsuan-Chen",女士,michelle@strengthmaster.com.tw,6,投資,1,投資型保單,Variable Account,1,FPI 嶺豐投資計劃 ,FPI-Summit,14,嶺豐投資計劃 ,Summit,17,Q500141956,16383023,英國友誠國際有限公司,Friend Provident International,11,,,,,,,,,,,,,,,,,,,,,
118,Aaron,1,王絢臻,"Wang, Hsuan-Chen",女士,michelle@strengthmaster.com.tw,6,投資,1,投資型保單,Variable Account,1,FPI 嶺豐投資計劃 ,FPI-Summit,14,嶺豐投資計劃 ,Summit,17,Q500141957,16383041,英國友誠國際有限公司,Friend Provident International,11,,,,,,,,,,,,,,,,,,,,,
120,Aaron,1,劉以文,"Liu, I-Wen",先生,marieliu@ms48.hinet.net,70,投資,1,投資型保單,Variable Account,1,FPI 卓裕計劃 ,FPI-Premier Ultra,12,卓裕計劃 ,Premier- Ultra,15,Q500209963,16529897,英國友誠國際有限公司,Friend Provident International,11,,,,,,,,,,,,,,,,,,,,,
121,Aaron,1,劉以文,"Liu, I-Wen",先生,marieliu@ms48.hinet.net,70,投資,1,投資型保單,Variable Account,1,FPI 萬全精英投資計劃 ,FPI-Elite (Lump Sum),16,萬全精英投資計劃 ,Elite,19,Q500209962,16529899 (退保),英國友誠國際有限公司,Friend Provident International,11,,,,,,,,,,,,,,,,,,,,,
131,Aaron,1,許淑華,"Hsu, Shu-Hua",女士,selina2656@hotmail.com,45,投資,1,投資型保單,Variable Account,1,FPI 優裕計劃 ,FPI-Premier,11,優裕計劃 ,Premier,14,Q500383292,17216535,英國友誠國際有限公司,Friend Provident International,11,,,,,,,,,,,,,,,,,,,,,
133,Aaron,1,許淑華,"Hsu, Shu-Hua",女士,selina2656@hotmail.com,45,投資,1,投資型保單,Variable Account,1,FPI 靈活增長計劃,FPI-Flexible Growth Plan,15,靈活增長計劃,Flexible Growth Plan,18,Q621108459 ,621108459,英國友誠國際有限公司,Friend Provident International,11,,,,,,,,,,,,,,,,,,,,,
136,Ivan,3,許淑芬,"Hsu, Shu-Fen",女士,Alice05888@gmail.com,88,投資,1,投資型保單,Variable Account,1,FPI 優裕計劃 ,FPI-Premier,11,優裕計劃 ,Premier,14,Q500390272,17335054,英國友誠國際有限公司,Friend Provident International,11,,,,,,,,,,,,,,,,,,,,,
137,Ivan,3,許淑芬,"Hsu, Shu-Fen",女士,Alice05888@gmail.com,88,投資,1,投資型保單,Variable Account,1,FPI 靈活增長計劃,FPI-Flexible Growth Plan,15,靈活增長計劃,Flexible Growth Plan,18,Q621122555,621122555,英國友誠國際有限公司,Friend Provident International,11,,,,,,,,,,,,,,,,,,,,,
140,Ivan,3,陳虹君,"Chen, Hong-Jun",小姐,vivian700522@seed.net.tw,90,投資,1,投資型保單,Variable Account,1,FPI 優裕計劃 ,FPI-Premier,11,優裕計劃 ,Premier,14,Q500120533,16193765,英國友誠國際有限公司,Friend Provident International,11,,,,,,,,,,,,,,,,,,,,,
141,Ivan,3,鄭偉仕,"Cheng, Wei-Shih",先生,jones0713@hotmail.com,94,投資,1,投資型保單,Variable Account,1,FPI 卓裕計劃 ,FPI-Premier Ultra,12,卓裕計劃 ,Premier- Ultra,15,Q500129226,16246878,英國友誠國際有限公司,Friend Provident International,11,,,,,,,,,,,,,,,,,,,,,
142,Ivan,3,鄭偉仕,"Cheng, Wei-Shih",先生,jones0713@hotmail.com,94,投資,1,投資型保單,Variable Account,1,FPI 萬全精英投資計劃 ,FPI-Elite (Lump Sum),16,萬全精英投資計劃 ,Elite,19,Q500141952,16383624 (退保),英國友誠國際有限公司,Friend Provident International,11,,,,,,,,,,,,,,,,,,,,,
143,Aaron,1,林高名,"Lin, Kao- Ming",先生,goman180@yahoo.com.tw,20,投資,1,投資型保單,Variable Account,1,FPI 優裕計劃 ,FPI-Premier,11,優裕計劃 ,Premier,14,Q500205609,16499260,英國友誠國際有限公司,Friend Provident International,11,,,,,,,,,,,,,,,,,,,,,
144,Aaron,1,曾仁義,"Tseng, Jen-Yi",先生,zin555ee@gmail.com,57,投資,1,投資型保單,Variable Account,1,FPI 優裕計劃 ,FPI-Premier,11,優裕計劃 ,Premier,14,Q500213308,16577019,英國友誠國際有限公司,Friend Provident International,11,,,,,,,,,,,,,,,,,,,,,
145,Aaron,1,王琳,"Wang, Lin",小姐,linmay09222@yahoo.com.tw,5,投資,1,投資型保單,Variable Account,1,FPI 優裕計劃 ,FPI-Premier,11,優裕計劃 ,Premier,14,Q500219626,16656670,英國友誠國際有限公司,Friend Provident International,11,,,,,,,,,,,,,,,,,,,,,
147,Aaron,1,郭晉禾,"Kuo, Chin-Ho",先生,wallacekuo@yahoo.com.tw,48,投資,1,投資型保單,Variable Account,1,FPI 優裕計劃 ,FPI-Premier,11,優裕計劃 ,Premier,14,Q500132128,16288451,英國友誠國際有限公司,Friend Provident International,11,,,,,,,,,,,,,,,,,,,,,
150,Aaron,1,林姿利,"Lin, Chih-Li",女士,kellylin0301@yahoo.com.tw,18,投資,1,投資型保單,Variable Account,1,FPI 優裕計劃 ,FPI-Premier,11,優裕計劃 ,Premier,14,Q500122592,16207357,英國友誠國際有限公司,Friend Provident International,11,,,,,,,,,,,,,,,,,,,,,
153,Aaron,1,莫喀嘎,"Mo, Ke-Ka",先生,d_l_rinpoch@hotmail.com,44,投資,1,投資型保單,Variable Account,1,FPI 優裕計劃 ,FPI-Premier,11,優裕計劃 ,Premier,14,Q500202862,16474562,英國友誠國際有限公司,Friend Provident International,11,,,,,,,,,,,,,,,,,,,,,
154,Aaron,1,何媛惠,"Ho, Yuan-Hui",女士,d_l_rinpoch@hotmail.com,10,投資,1,投資型保單,Variable Account,1,FPI 優裕計劃 ,FPI-Premier,11,優裕計劃 ,Premier,14,Q500128657,16237791,英國友誠國際有限公司,Friend Provident International,11,,,,,,,,,,,,,,,,,,,,,
155,Aaron,1,何媛惠,"Ho, Yuan-Hui",女士,d_l_rinpoch@hotmail.com,10,投資,1,投資型保單,Variable Account,1,FPI 優裕計劃 ,FPI-Premier,11,優裕計劃 ,Premier,14,Q500220844,16669124,英國友誠國際有限公司,Friend Provident International,11,,,,,,,,,,,,,,,,,,,,,
163,Aaron,1,蔡美娜,"Tsai, Mei-Na",女士,aa55mei@gmail.com,72,投資,1,投資型保單,Variable Account,1,FPI 卓裕計劃 ,FPI-Premier Ultra,12,卓裕計劃 ,Premier- Ultra,15,Q500384414,17235940,英國友誠國際有限公司,Friend Provident International,11,,,,,,,,,,,,,,,,,,,,,
166,Aaron,1,鄧寀嬥,"Teng, Cai-Di",女士,hua111561@yahoo.com.tw,75,投資,1,投資型保單,Variable Account,1,FPI 優裕計劃 ,FPI-Premier,11,優裕計劃 ,Premier,14,Q500206724,16512669,英國友誠國際有限公司,Friend Provident International,11,,,,,,,,,,,,,,,,,,,,,
168,Aaron,1,高照晶,"Kao, Chao-Ching",女士,joanna.kao@hotmail.com.tw,36,投資,1,投資型保單,Variable Account,1,FPI 優裕計劃 ,FPI-Premier,11,優裕計劃 ,Premier,14,Q500220260,16663615,英國友誠國際有限公司,Friend Provident International,11,,,,,,,,,,,,,,,,,,,,,
169,Aaron,1,賴朝傑,"Lai, Chao-Chieh",先生,agribiz.alan@yahoo.com.tw,77,投資,1,投資型保單,Variable Account,1,FPI 優裕計劃 ,FPI-Premier,11,優裕計劃 ,Premier,14,Q500395541,17414865,英國友誠國際有限公司,Friend Provident International,11,,,,,,,,,,,,,,,,,,,,,
170,Aaron,1,王竑勝,"Wang, Hong- Sheng",先生,NAS無EMAIL,3,投資,1,投資型保單,Variable Account,1,FPI 優裕計劃 ,FPI-Premier,11,優裕計劃 ,Premier,14,Q500177551,16414489,英國友誠國際有限公司,Friend Provident International,11,,,,,,,,,,,,,,,,,,,,,
171,Aaron,1,陳文泰,"Chen,Wen-Tai",先生,w10029@hotmail.com,50,投資,1,投資型保單,Variable Account,1,FPI 卓裕計劃 ,FPI-Premier Ultra,12,卓裕計劃 ,Premier- Ultra,15,Q500112066,16133432,英國友誠國際有限公司,Friend Provident International,11,,,,,,,,,,,,,,,,,,,,,
173,Aaron,1,陳渼瑄,"Chen,Mei-Hsuan",女士,ur2007ur2007@hotmail.com,53,投資,1,投資型保單,Variable Account,1,FPI 優裕計劃 ,FPI-Premier,11,優裕計劃 ,Premier,14,Q500216424,16619606,英國友誠國際有限公司,Friend Provident International,11,,,,,,,,,,,,,,,,,,,,,
174,Aaron,1,吳曉春,"Wu, Xiao-Chun",先生,xiaochun_wu95@hotmail.com,13,投資,1,投資型保單,Variable Account,1,FPI 卓裕計劃 ,FPI-Premier Ultra,12,卓裕計劃 ,Premier- Ultra,15,Q500407213,17802528,英國友誠國際有限公司,Friend Provident International,11,,,,,,,,,,,,,,,,,,,,,
175,Aaron,1,張原,"Zhang, Yuan",先生,"ericzhang_gg@hotmail.com,Wayofeva@gmail.com",38,投資,1,投資型保單,Variable Account,1,FPI 卓裕計劃 ,FPI-Premier Ultra,12,卓裕計劃 ,Premier- Ultra,15,Q500407227,17802374,英國友誠國際有限公司,Friend Provident International,11,,,,,,,,,,,,,,,,,,,,,
135,Aaron,1,許淑華,"Hsu, Shu-Hua",女士,selina2656@hotmail.com,45,投資,1,投資型保單,Variable Account,1,Aviva 環球儲蓄戶口 ,Aviva-Global Savings Account,17,Aviva 環球儲蓄戶口 ,Aviva Global Savings Account,20,H0044365,H0044365,英傑華人壽保險有限公司,Aviva Life Insurance Company Limited,12,,,,,,,,,,,,,,,,,,,,,
138,Ivan,3,許淑芬,"Hsu, Shu-Fen",女士,Alice05888@gmail.com,88,投資,1,投資型保單,Variable Account,1,Aviva 環球儲蓄戶口 ,Aviva-Global Savings Account,17,Aviva 環球儲蓄戶口 ,Aviva Global Savings Account,20,H0044379,H0044379,英傑華人壽保險有限公司,Aviva Life Insurance Company Limited,12,,,,,,,,,,,,,,,,,,,,,
2,Aaron,1,莊隆霖,"Chuang, Lung-Lin",先生,aaronchuang6755@gmail.com,43,房地產,3,美國安養院,Assisted Living Home,6,房產創富計劃-貝爾樂頤康之家,Pueblo West Investors,18,貝爾樂頤康之家-LLC,"Pueblo West Investors, LLC",21,PWC-11-20006,PWC-11-20006,麥迪遜不動產有限公司,GT Madison Realty,13,,,,,,,,,,,,,,,,,,,,,
181,Aaron,1,湯福明,"Tang, Fu-Ming",先生,creopatara@hotmail.com,58,房地產,3,美國安養院,Assisted Living Home,6,房產創富計劃-雅硯居頤康之家,Cornerstone Longwood Senior Living,19,雅硯居頤康之家-LP,"Cornerstone Longwood Senior Living, LP",22,CST-11-10014,CST-11-10014,麥迪遜不動產有限公司,GT Madison Realty,13,,,,,,,,,,,,,,,,,,,,,
181,Aaron,1,湯福明,"Tang, Fu-Ming",先生,creopatara@hotmail.com,58,房地產,3,美國安養院,Assisted Living Home,6,房產創富計劃-雅硯居頤康之家,Cornerstone Longwood Senior Living,19,雅硯居頤康之家-LP,"Cornerstone Longwood Senior Living, LP",22,CST-11-10014,CST-11-10014,麥迪遜不動產有限公司,GT Madison Realty,13,,,,,,,,,,,,,,,,,,,,,
182,Aaron,1,湯福明,"Tang, Fu-Ming",先生,creopatara@hotmail.com,58,房地產,3,美國安養院,Assisted Living Home,6,房產創富計劃-馬歇爾頤康之家,Villa Marche Stockton Senior Partners,20,馬歇爾頤康之家-LP,"Villa Marche Stockton Senior Living, LP",23,VMS-11-10013,VMS-11-10013,麥迪遜不動產有限公司,GT Madison Realty,13,,,,,,,,,,,,,,,,,,,,,
4,Aaron,1,莊隆霖,"Chuang, Lung-Lin",先生,aaronchuang6755@gmail.com,43,房地產,3,美國安養院,Assisted Living Home,6,房產創富計劃-朗遐居頤康之家,Casa de Rosa Senior Living,21,朗遐居頤康之家-LP,"Casa de Rosa Senior Living, LP",24,CDR-11-10016,CDR-11-10016,麥迪遜不動產有限公司,GT Madison Realty,13,,,,,,,,,,,,,,,,,,,,,
5,Paul,2,蔡耀德,"TSAI,YAO-TE",先生,getta2@gmail.com,141,房地產,3,美國安養院,Assisted Living Home,6,房產創富計劃-萊翡特頤康之家,Lafayette Senior Partners,22,萊翡特頤康之家-LLC,"Lafayette Senior Partners, LLC",25,LF-11-20022,LF-11-20022,麥迪遜不動產有限公司,GT Madison Realty,13,,,,,,,,,,,,,,,,,,,,,
6,Paul,2,蔡耀德,"TSAI,YAO-TE",先生,getta2@gmail.com,141,房地產,3,美國安養院,Assisted Living Home,6,房產創富計劃-雅硯居頤康之家,Cornerstone Longwood Senior Living,19,雅硯居頤康之家-LP,"Cornerstone Longwood Senior Living, LP",22,CST-11-10001,CST-11-10001,麥迪遜不動產有限公司,GT Madison Realty,13,,,,,,,,,,,,,,,,,,,,,
10,Aaron,1,林韋芍,"Lin, Wei-Shao",女士,rose@shinelong.com.tw,19,房地產,3,美國安養院,Assisted Living Home,6,房產創富計劃-馬歇爾頤康之家,Villa Marche Stockton Senior Partners,20,馬歇爾頤康之家-LLC,"Villa Marche Stockton Senior Partners, LLC",26,VMS-11-20001,VMS-11-20001,麥迪遜不動產有限公司,GT Madison Realty,13,,,,,,,,,,,,,,,,,,,,,
14,Paul,2,林瓊姿,"LIN,CHIUNG-ZUE",女士,a0919101316@gmail.com,121,房地產,3,美國安養院,Assisted Living Home,6,房產創富計劃-馬歇爾頤康之家,Villa Marche Stockton Senior Partners,20,馬歇爾頤康之家-LP,"Villa Marche Stockton Senior Living, LP",23,VMS-11-10018,VMS-11-10018,麥迪遜不動產有限公司,GT Madison Realty,13,,,,,,,,,,,,,,,,,,,,,
17,Ivan,3,李廣韻,"Lee, Kuang-Yun",女士,kuang061@gmail.com,82,房地產,3,美國安養院,Assisted Living Home,6,房產創富計劃-萊翡特頤康之家,Lafayette Senior Partners,22,萊翡特頤康之家-LLC,"Lafayette Senior Partners, LLC",25,LF-11-20009,LF-11-20009,麥迪遜不動產有限公司,GT Madison Realty,13,,,,,,,,,,,,,,,,,,,,,
36,Aaron,1,蘇惠娟,"Su, Hui-Chuan",女士,shc@scsb.com.tw,80,房地產,3,美國安養院,Assisted Living Home,6,房產創富計劃-雅硯居頤康之家,Cornerstone Longwood Senior Living,19,雅硯居頤康之家-LP,"Cornerstone Longwood Senior Living, LP",22,CST-11-10003,CST-11-10003,麥迪遜不動產有限公司,GT Madison Realty,13,,,,,,,,,,,,,,,,,,,,,
49,Aaron,1,謝朝福,"Hsieh, Chao-Fu",先生,st.star@msa.hinet.net,78,房地產,3,美國安養院,Assisted Living Home,6,房產創富計劃-貝爾樂頤康之家,Pueblo West Investors,18,貝爾樂頤康之家-LLC,"Pueblo West Investors, LLC",21,PWC-11-20004,PWC-11-20004,麥迪遜不動產有限公司,GT Madison Realty,13,,,,,,,,,,,,,,,,,,,,,
72,Aaron,1,詹巧玲,"Chan, Chiao-Ling",女士,ciaoling168@gmail.com,69,房地產,3,美國安養院,Assisted Living Home,6,房產創富計劃-品達歌德頤養園,Punta Gorda Senior Living,23,品達歌德頤養園-LP,"Punta Gorda Senior Living, LP",27,PG-11-10007,PG-11-10007,麥迪遜不動產有限公司,GT Madison Realty,13,,,,,,,,,,,,,,,,,,,,,
73,Aaron,1,詹巧玲,"Chan, Chiao-Ling",女士,ciaoling168@gmail.com,69,房地產,3,美國安養院,Assisted Living Home,6,房產創富計劃-朗遐居頤康之家,Casa de Rosa Senior Living,21,朗遐居頤康之家-LP,"Casa de Rosa Senior Living, LP",24,CDR-11-10017,CDR-11-10017,麥迪遜不動產有限公司,GT Madison Realty,13,,,,,,,,,,,,,,,,,,,,,
90,Aaron,1,吳秀玉,"Wu, Hsiu-Yu",女士,,12,房地產,3,美國安養院,Assisted Living Home,6,房產創富計劃-雅硯居頤康之家,Cornerstone Longwood Senior Living,19,雅硯居頤康之家-LP,"Cornerstone Longwood Senior Living, LP",22,CST-11-10009,CST-11-10009,麥迪遜不動產有限公司,GT Madison Realty,13,,,,,,,,,,,,,,,,,,,,,
123,Aaron,1,劉以文,"Liu, I-Wen",先生,marieliu@ms48.hinet.net,70,房地產,3,美國安養院,Assisted Living Home,6,房產創富計劃-雅硯居頤康之家,Cornerstone Longwood Senior Living,19,雅硯居頤康之家-LP,"Cornerstone Longwood Senior Living, LP",22,CST-11-10025,CST-11-10025,麥迪遜不動產有限公司,GT Madison Realty,13,,,,,,,,,,,,,,,,,,,,,
159,Aaron,1,何媛惠,"Ho, Yuan-Hui",女士,d_l_rinpoch@hotmail.com,10,房地產,3,美國安養院,Assisted Living Home,6,房產創富計劃-品達歌德頤養園,Punta Gorda Senior Living,23,品達歌德頤養園-LP,"Punta Gorda Senior Living, LP",27,PG-11-10006,PG-11-10006,麥迪遜不動產有限公司,GT Madison Realty,13,,,,,,,,,,,,,,,,,,,,,
165,Aaron,1,蔡美娜,"Tsai, Mei-Na",女士,aa55mei@gmail.com,72,房地產,3,美國安養院,Assisted Living Home,6,房產創富計劃-萊翡特頤康之家,Lafayette Senior Partners,22,萊翡特頤康之家-LLC,"Lafayette Senior Partners, LLC",25,LF-11-20015,LF-11-20015,麥迪遜不動產有限公司,GT Madison Realty,13,,,,,,,,,,,,,,,,,,,,,
178,Aaron,1,曹汝萍,"Cao,Ru-Ping",女士,13801666586@163.com,42,房地產,3,美國安養院,Assisted Living Home,6,房產創富計劃-雅硯居頤康之家,Cornerstone Longwood Senior Living,19,雅硯居頤康之家-LP,"Cornerstone Longwood Senior Living, LP",22,CST-11-10005,CST-11-10005,麥迪遜不動產有限公司,GT Madison Realty,13,,,,,,,,,,,,,,,,,,,,,
3,Aaron,1,莊隆霖,"Chuang, Lung-Lin",先生,aaronchuang6755@gmail.com,43,房地產,3,美國銀拍屋,Panorama U.S. Housing Program,7,博諾前進美國優質銀拍屋計劃 II,"Panorama U.S. Housing II, LP",24,博諾前進美國優質銀拍屋計劃 II,"Panorama U.S. Housing II, LP",28,PANOII-11-10041,PANOII-11-10041,麥迪遜不動產有限公司,GT Madison Realty,13,,,,,,,,,,,,,,,,,,,,,
6,Aaron,1,吳櫂筵,"Wu, Chao-Yen",先生,tp27621638@gmail.com,14,房地產,3,美國銀拍屋,Panorama U.S. Housing Program,7,博諾前進美國優質銀拍屋計劃 II,"Panorama U.S. Housing II, LP",24,博諾前進美國優質銀拍屋計劃 II,"Panorama U.S. Housing II, LP",28,PANOII-11-10024,PANOII-11-10024,麥迪遜不動產有限公司,GT Madison Realty,13,,,,,,,,,,,,,,,,,,,,,
32,Aaron,1,王連銀渾,"Wang Lien,Yin-Hun",女士,tonywang512@gmail.com,4,房地產,3,美國銀拍屋,Panorama U.S. Housing Program,7,博諾前進美國優質銀拍屋計劃 II,"Panorama U.S. Housing II, LP",24,博諾前進美國優質銀拍屋計劃 II,"Panorama U.S. Housing II, LP",28,PANOII-11-10038,PANOII-11-10038,麥迪遜不動產有限公司,GT Madison Realty,13,,,,,,,,,,,,,,,,,,,,,
33,Aaron,1,王連銀渾,"Wang Lien,Yin-Hun",女士,tonywang512@gmail.com,4,房地產,3,美國銀拍屋,Panorama U.S. Housing Program,7,博諾前進美國優質銀拍屋計劃 II,"Panorama U.S. Housing II, LP",24,博諾前進美國優質銀拍屋計劃 II,"Panorama U.S. Housing II, LP",28,PANOII-11-10038,PANOII-11-10038,麥迪遜不動產有限公司,GT Madison Realty,13,,,,,,,,,,,,,,,,,,,,,
48,Aaron,1,謝朝福,"Hsieh, Chao-Fu",先生,st.star@msa.hinet.net,78,房地產,3,美國銀拍屋,Panorama U.S. Housing Program,7,博諾前進美國優質銀拍屋計劃 II,"Panorama U.S. Housing II, LP",24,博諾前進美國優質銀拍屋計劃 II,"Panorama U.S. Housing II, LP",28,PANOII-11-10040,PANOII-11-10040,麥迪遜不動產有限公司,GT Madison Realty,13,,,,,,,,,,,,,,,,,,,,,
56,Ivan,3,莊謙泰,"Chuang, Chien-Tai",先生,garychuang0909@yahoo.com.tw,87,房地產,3,美國銀拍屋,Panorama U.S. Housing Program,7,博諾前進美國優質銀拍屋計劃 II,"Panorama U.S. Housing II, LP",24,博諾前進美國優質銀拍屋計劃 II,"Panorama U.S. Housing II, LP",28,PANOII-11-10004,PANOII-11-10004,麥迪遜不動產有限公司,GT Madison Realty,13,,,,,,,,,,,,,,,,,,,,,
57,Ivan,3,莊謙泰,"Chuang, Chien-Tai",先生,garychuang0909@yahoo.com.tw,87,房地產,3,美國銀拍屋,Panorama U.S. Housing Program,7,博諾前進美國優質銀拍屋計劃 II,"Panorama U.S. Housing II, LP",24,博諾前進美國優質銀拍屋計劃 II,"Panorama U.S. Housing II, LP",28,PANOII-11-10004,PANOII-11-10004,麥迪遜不動產有限公司,GT Madison Realty,13,,,,,,,,,,,,,,,,,,,,,
69,Aaron,1,詹巧玲,"Chan, Chiao-Ling",女士,ciaoling168@gmail.com,69,房地產,3,美國銀拍屋,Panorama U.S. Housing Program,7,博諾前進美國優質銀拍屋計劃 II,"Panorama U.S. Housing II, LP",24,博諾前進美國優質銀拍屋計劃 II,"Panorama U.S. Housing II, LP",28,PANOII-11-10006,PANOII-11-10006,麥迪遜不動產有限公司,GT Madison Realty,13,,,,,,,,,,,,,,,,,,,,,
70,Aaron,1,詹巧玲,"Chan, Chiao-Ling",女士,ciaoling168@gmail.com,69,房地產,3,美國銀拍屋,Panorama U.S. Housing Program,7,博諾前進美國優質銀拍屋計劃 II,"Panorama U.S. Housing II, LP",24,博諾前進美國優質銀拍屋計劃 II,"Panorama U.S. Housing II, LP",28,PANOII-11-10006,PANOII-11-10006,麥迪遜不動產有限公司,GT Madison Realty,13,,,,,,,,,,,,,,,,,,,,,
71,Aaron,1,詹巧玲,"Chan, Chiao-Ling",女士,ciaoling168@gmail.com,69,房地產,3,美國銀拍屋,Panorama U.S. Housing Program,7,博諾前進美國優質銀拍屋計劃 II,"Panorama U.S. Housing II, LP",24,博諾前進美國優質銀拍屋計劃 II,"Panorama U.S. Housing II, LP",28,PANOII-11-10006,PANOII-11-10006,麥迪遜不動產有限公司,GT Madison Realty,13,,,,,,,,,,,,,,,,,,,,,
78,Ivan,3,吳月嫈,"Wu, Yueh-Ying",女士,WINNIE.YY.WU@cyntec.com,81,房地產,3,美國銀拍屋,Panorama U.S. Housing Program,7,博諾前進美國優質銀拍屋計劃 II,"Panorama U.S. Housing II, LP",24,博諾前進美國優質銀拍屋計劃 II,"Panorama U.S. Housing II, LP",28,PANOII-11-10017,PANOII-11-10017,麥迪遜不動產有限公司,GT Madison Realty,13,,,,,,,,,,,,,,,,,,,,,
83,Aaron,1,許糴_,"Hsu, Di-Shiuan",女士,happyjoan168@yahoo.com.tw,46,房地產,3,美國銀拍屋,Panorama U.S. Housing Program,7,博諾前進美國優質銀拍屋計劃 I,"Panorama U.S. Housing I, LP",25,博諾前進美國優質銀拍屋計劃 I,"Panorama U.S. Housing I, LP
",29,PANO-11-10010,PANO-11-10010,麥迪遜不動產有限公司,GT Madison Realty,13,,,,,,,,,,,,,,,,,,,,,
84,Aaron,1,許糴_,"Hsu, Di-Shiuan",女士,happyjoan168@yahoo.com.tw,46,房地產,3,美國銀拍屋,Panorama U.S. Housing Program,7,博諾前進美國優質銀拍屋計劃 I,"Panorama U.S. Housing I, LP",25,博諾前進美國優質銀拍屋計劃 I,"Panorama U.S. Housing I, LP
",29,PANO-11-10020,PANO-11-10020,麥迪遜不動產有限公司,GT Madison Realty,13,,,,,,,,,,,,,,,,,,,,,
89,Aaron,1,吳秀玉,"Wu, Hsiu-Yu",女士,,12,房地產,3,美國銀拍屋,Panorama U.S. Housing Program,7,博諾前進美國優質銀拍屋計劃 II,"Panorama U.S. Housing II, LP",24,博諾前進美國優質銀拍屋計劃 II,"Panorama U.S. Housing II, LP",28,PANOII-11-10014,PANOII-11-10014,麥迪遜不動產有限公司,GT Madison Realty,13,,,,,,,,,,,,,,,,,,,,,
100,Aaron,1,袁啟訓,"Yuan, Chi- Hsun",先生,yuan573@yahoo.com.tw,32,房地產,3,美國銀拍屋,Panorama U.S. Housing Program,7,博諾前進美國優質銀拍屋計劃 II,"Panorama U.S. Housing II, LP",24,博諾前進美國優質銀拍屋計劃 II,"Panorama U.S. Housing II, LP",28,PANOII-11-10037,PANOII-11-10037,麥迪遜不動產有限公司,GT Madison Realty,13,,,,,,,,,,,,,,,,,,,,,
101,Aaron,1,袁啟訓,"Yuan, Chi- Hsun",先生,yuan573@yahoo.com.tw,32,房地產,3,美國銀拍屋,Panorama U.S. Housing Program,7,博諾前進美國優質銀拍屋計劃 II,"Panorama U.S. Housing II, LP",24,博諾前進美國優質銀拍屋計劃 II,"Panorama U.S. Housing II, LP",28,PANOII-11-10037,PANOII-11-10037,麥迪遜不動產有限公司,GT Madison Realty,13,,,,,,,,,,,,,,,,,,,,,
122,Aaron,1,劉以文,"Liu, I-Wen",先生,marieliu@ms48.hinet.net,70,房地產,3,美國銀拍屋,Panorama U.S. Housing Program,7,博諾前進美國優質銀拍屋計劃 II,"Panorama U.S. Housing II, LP",24,博諾前進美國優質銀拍屋計劃 II,"Panorama U.S. Housing II, LP",28,PANOII-11-10019,PANOII-11-10019,麥迪遜不動產有限公司,GT Madison Realty,13,,,,,,,,,,,,,,,,,,,,,
134,Aaron,1,許淑華,"Hsu, Shu-Hua",女士,selina2656@hotmail.com,45,房地產,3,美國銀拍屋,Panorama U.S. Housing Program,7,博諾前進美國優質銀拍屋計劃 II,"Panorama U.S. Housing II, LP",24,博諾前進美國優質銀拍屋計劃 II,"Panorama U.S. Housing II, LP",28,PANOII-11-10003,PANOII-11-10003,麥迪遜不動產有限公司,GT Madison Realty,13,,,,,,,,,,,,,,,,,,,,,
149,Aaron,1,郭晉禾,"Kuo, Chin-Ho",先生,wallacekuo@yahoo.com.tw,48,房地產,3,美國銀拍屋,Panorama U.S. Housing Program,7,博諾前進美國優質銀拍屋計劃 II,"Panorama U.S. Housing II, LP",24,博諾前進美國優質銀拍屋計劃 II,"Panorama U.S. Housing II, LP",28,PANOII-11-10021,PANOII-11-10021,麥迪遜不動產有限公司,GT Madison Realty,13,,,,,,,,,,,,,,,,,,,,,
151,Aaron,1,林姿利,"Lin, Chih-Li",女士,kellylin0301@yahoo.com.tw,18,房地產,3,美國銀拍屋,Panorama U.S. Housing Program,7,博諾前進美國優質銀拍屋計劃 II,"Panorama U.S. Housing II, LP",24,博諾前進美國優質銀拍屋計劃 II,"Panorama U.S. Housing II, LP",28,PANOII-11-10002,PANOII-11-10002,麥迪遜不動產有限公司,GT Madison Realty,13,,,,,,,,,,,,,,,,,,,,,
152,Aaron,1,林姿利,"Lin, Chih-Li",女士,kellylin0301@yahoo.com.tw,18,房地產,3,美國銀拍屋,Panorama U.S. Housing Program,7,博諾前進美國優質銀拍屋計劃 II,"Panorama U.S. Housing II, LP",24,博諾前進美國優質銀拍屋計劃 II,"Panorama U.S. Housing II, LP",28,PANOII-11-10002,PANOII-11-10002,麥迪遜不動產有限公司,GT Madison Realty,13,,,,,,,,,,,,,,,,,,,,,
156,Aaron,1,何媛惠,"Ho, Yuan-Hui",女士,d_l_rinpoch@hotmail.com,10,房地產,3,美國銀拍屋,Panorama U.S. Housing Program,7,博諾前進美國優質銀拍屋計劃 I,"Panorama U.S. Housing I, LP",25,博諾前進美國優質銀拍屋計劃 I,"Panorama U.S. Housing I, LP
",29,PANO-11-10022,PANO-11-10022,麥迪遜不動產有限公司,GT Madison Realty,13,,,,,,,,,,,,,,,,,,,,,
156,Aaron,1,何媛惠,"Ho, Yuan-Hui",女士,d_l_rinpoch@hotmail.com,10,房地產,3,美國銀拍屋,Panorama U.S. Housing Program,7,博諾前進美國優質銀拍屋計劃 I,"Panorama U.S. Housing I, LP",25,博諾前進美國優質銀拍屋計劃 I,"Panorama U.S. Housing I, LP
",29,PANO-11-10022,PANO-11-10022,麥迪遜不動產有限公司,GT Madison Realty,13,,,,,,,,,,,,,,,,,,,,,
157,Aaron,1,何媛惠,"Ho, Yuan-Hui",女士,d_l_rinpoch@hotmail.com,10,房地產,3,美國銀拍屋,Panorama U.S. Housing Program,7,博諾前進美國優質銀拍屋計劃 II,"Panorama U.S. Housing II, LP",24,博諾前進美國優質銀拍屋計劃 II,"Panorama U.S. Housing II, LP",28,PANOII-11-10035,PANOII-11-10035,麥迪遜不動產有限公司,GT Madison Realty,13,,,,,,,,,,,,,,,,,,,,,
158,Aaron,1,何媛惠,"Ho, Yuan-Hui",女士,d_l_rinpoch@hotmail.com,10,房地產,3,美國銀拍屋,Panorama U.S. Housing Program,7,博諾前進美國優質銀拍屋計劃 II,"Panorama U.S. Housing II, LP",24,博諾前進美國優質銀拍屋計劃 II,"Panorama U.S. Housing II, LP",28,PANOII-11-10035,PANOII-11-10035,麥迪遜不動產有限公司,GT Madison Realty,13,,,,,,,,,,,,,,,,,,,,,
164,Aaron,1,蔡美娜,"Tsai, Mei-Na",女士,aa55mei@gmail.com,72,房地產,3,美國銀拍屋,Panorama U.S. Housing Program,7,博諾前進美國優質銀拍屋計劃 II,"Panorama U.S. Housing II, LP",24,博諾前進美國優質銀拍屋計劃 II,"Panorama U.S. Housing II, LP",28,PANOII-11-10001,PANOII-11-10001,麥迪遜不動產有限公司,GT Madison Realty,13,,,,,,,,,,,,,,,,,,,,,
128,Aaron,1,林淑敏,"Lin, Su-Min",女士,clark@longhai.com.tw,21,投資,1,股票,IPO,8,股票,IPO,26,股票,IPO,30,Share Hold,,廣達,Grandtag,14,,,,,,,,,,,,,,,,,,,,,
24,Aaron,1,陳漢璿,"Chen, Han-Hsun",先生,hanbury.ceo@gmail.com,54,投資,1,投資型保單,Variable Account,1,SL 盈聚101投資計劃,SL-Harvest 101 Plan,27,盈聚101投資計劃,Harvest 101 Plan,31,00011752,00011752,標準人壽保險(亞洲)有限公司,Standard Life (Asia) Limited,15,,,,,,,,,,,,,,,,,,,,,
25,Aaron,1,陳漢璿,"Chen, Han-Hsun",先生,hanbury.ceo@gmail.com,54,投資,1,投資型保單,Variable Account,1,SL 盈聚101投資計劃,SL-Harvest 101 Plan,27,盈聚101投資計劃,Harvest 101 Plan,31,00011776,00011776,標準人壽保險(亞洲)有限公司,Standard Life (Asia) Limited,15,,,,,,,,,,,,,,,,,,,,,
42,Ivan,3,邱浩楷,"Chiu, Hao-Kai",先生,s923316@yahoo.com.tw,84,投資,1,投資型保單,Variable Account,1,SL 盈聚101投資計劃,SL-Harvest 101 Plan,27,盈聚101投資計劃,Harvest 101 Plan,31,00012255,00012255,標準人壽保險(亞洲)有限公司,Standard Life (Asia) Limited,15,,,,,,,,,,,,,,,,,,,,,
61,Aaron,1,林瑋奕,"Lin, Wei-I",,,22,投資,1,投資型保單,Variable Account,1,SL 盈聚101投資計劃,SL-Harvest 101 Plan,27,盈聚101投資計劃,Harvest 101 Plan,31,00011891,00011891,標準人壽保險(亞洲)有限公司,Standard Life (Asia) Limited,15,,,,,,,,,,,,,,,,,,,,,
125,Aaron,1,郭彥甫,"Kuo, Yen-Fu",先生,jt88520041@yahoo.com.tw,47,投資,1,投資型保單,Variable Account,1,SL 盈聚101投資計劃,SL-Harvest 101 Plan,27,盈聚101投資計劃,Harvest 101 Plan,31,00012160,00012160,標準人壽保險(亞洲)有限公司,Standard Life (Asia) Limited,15,,,,,,,,,,,,,,,,,,,,,
58,Ivan,3,莊謙泰,"Chuang, Chien-Tai",先生,garychuang0909@yahoo.com.tw,87,房地產,3,加拿大地產,Land Banking ― UDI,9,A2A 土地創富計劃,A2A -Land Banking,28,麗嘉豪園,Niagara Falls Park(NFP),32,23397,23397,豐亞資產管理(香港)有限公司,A2A,16,,,,,,,,,,,,,,,,,,,,,
93,Aaron,1,楊玉敦,"Yang, Yu-Tun",女士,yudunyang@gmail.com,65,房地產,3,加拿大地產,Land Banking ― UDI,9,土地創富計劃,Land Banking,29,布賴德園,Birdle Park (BP),33,4953,4953,豐亞資產管理(香港)有限公司,A2A,16,,,,,,,,,,,,,,,,,,,,,
160,Aaron,1,何媛惠,"Ho, Yuan-Hui",女士,d_l_rinpoch@hotmail.com,10,房地產,3,加拿大地產,Land Banking ― UDI,9,A2A 土地創富計劃,A2A -Land Banking,28,麗嘉豪園,Niagara Falls Park(NFP),32,16128,16128,豐亞資產管理(香港)有限公司,A2A,16,,,,,,,,,,,,,,,,,,,,,
172,Aaron,1,陳文泰,"Chen,Wen-Tai",先生,w10029@hotmail.com,50,房地產,3,加拿大地產,Land Banking ― UDI,9,A2A 土地創富計劃,A2A -Land Banking,28,麗嘉豪園,Niagara Falls Park(NFP),32,24657,24657,豐亞資產管理(香港)有限公司,A2A,16,,,,,,,,,,,,,,,,,,,,,
28,Paul,2,林尚毅,"LIN,SHANG-YI",先生,linpeanut@gmail.com ,118,房地產,3,美國地產,Land Banking ― UDI,10,A2A 項目發展計劃,A2A -Project Development Plan,30,豐麗雅苑,Fossil Creek,34,145108DP,145108DP,豐亞資產管理(香港)有限公司,A2A,16,,,,,,,,,,,,,,,,,,,,,
161,Aaron,1,何媛惠,"Ho, Yuan-Hui",女士,d_l_rinpoch@hotmail.com,10,房地產,3,美國地產,Land Banking ― UDI,10,A2A 項目發展計劃,A2A -Project Development Plan,30,麗湖山莊,The Hills of Windridge,35,134161DP,134161DP,豐亞資產管理(香港)有限公司,A2A,16,,,,,,,,,,,,,,,,,,,,,
187,Aaron,1,孫明春,"Sun, Ming-Chun",女士,1174785704@qq.com,30,投資,1,投資型保單,Variable Account,1,Zurich 豐盛人生,Zurich-Vista,6,豐盛人生,Vista,9,9818659,9818659,蘇黎世國際人壽保險,Zurich International Life Ltd.,6,,,,,,,,,,,,,,,,,,,,,